LOGFILE 2018-04-08 07:11:21 :with: 1-setya :act: logout :info: just logout :end;
LOGFILE 2018-04-08 07:11:21 :with: - :act: logout :info: just logout :end;
LOGFILE 2018-04-08 13:47:16 :with: - :act: logout :info: just logout :end;
LOGFILE 2018-04-08 13:51:20 :with: 1-setya :act: logout :info: just logout :end;
LOGFILE 2018-04-08 13:51:21 :with: - :act: logout :info: just logout :end;
LOGFILE 2018-04-08 13:52:43 :with: 2-demohotel :act: logout :info: just logout :end;
LOGFILE 2018-04-08 13:52:43 :with: - :act: logout :info: just logout :end;
LOGFILE 2018-04-08 13:52:52 :with: 149-mjhdenpasar :act: logout :info: just logout :end;
LOGFILE 2018-04-08 13:54:50 :with: - :act: logout :info: just logout :end;
LOGFILE 2018-04-08 13:54:50 :with: 2-demohotel :act: logout :info: just logout :end;
LOGFILE 2018-04-08 13:58:20 :with: 1-setya :act: logout :info: just logout :end;
LOGFILE 2018-04-08 14:02:57 :with: 149-mjhdenpasar :act: logout :info: just logout :end;
LOGFILE 2018-04-08 14:02:58 :with: 2-demohotel :act: logout :info: just logout :end;
LOGFILE 2018-04-08 14:03:13 :with: 2-demohotel :act: logout :info: just logout :end;
LOGFILE 2018-04-08 14:21:53 :with: 87-ind :act: logout :info: just logout :end;
LOGFILE 2018-04-08 14:28:49 :with: 2-demohotel :act: logout :info: just logout :end;
LOGFILE 2018-04-08 14:52:13 :with: 87-ind :act: logout :info: just logout :end;
LOGFILE 2018-04-08 14:52:54 :with: 2-demohotel :act: logout :info: just logout :end;
LOGFILE 2018-04-08 14:54:13 :with: 87-ind :act: logout :info: just logout :end;
LOGFILE 2018-04-08 14:54:24 :with: 87-ind :act: logout :info: just logout :end;
LOGFILE 2018-04-08 14:56:47 :with: 2-demohotel :act: logout :info: just logout :end;
LOGFILE 2018-04-08 14:58:25 :with: 2-demohotel :act: logout :info: just logout :end;
LOGFILE 2018-04-08 14:58:41 :with: 149-mjhdenpasar :act: logout :info: just logout :end;
LOGFILE 2018-04-08 15:00:21 :with: 2-demohotel :act: logout :info: just logout :end;
LOGFILE 2018-04-08 15:00:41 :with: 2-demohotel :act: logout :info: just logout :end;
LOGFILE 2018-04-08 15:24:32 :with: 88-sguntary :act: logout :info: just logout :end;
