LOGFILE 2017-06-16 15:43:09 :with: 89-calista :act: logout :info: just logout :end;
LOGFILE 2017-06-16 15:46:17 :with: 89-calista :act: logout :info: just logout :end;
LOGFILE 2017-06-16 17:10:09 :with: 142-grandorchidjogja :act: logout :info: just logout :end;
