LOGFILE 2017-07-07 09:54:57 :with: 94-bayuwestlake :act: logout :info: just logout :end;
LOGFILE 2017-07-07 12:14:58 :with: 88-sguntary :act: logout :info: just logout :end;
LOGFILE 2017-07-07 14:14:16 :with: 88-sguntary :act: logout :info: just logout :end;
LOGFILE 2017-07-07 15:10:11 :with: 121-cathy :act: logout :info: just logout :end;
LOGFILE 2017-07-07 17:09:53 :with: 93-ruditara :act: logout :info: just logout :end;
LOGFILE 2017-07-07 22:06:54 :with: 93-ruditara :act: logout :info: just logout :end;
