LOGFILE 2018-01-04 07:22:17 :with: 99-rsv.wapadiume :act: logout :info: just logout :end;
LOGFILE 2018-01-04 13:54:06 :with: 149-mjhdenpasar :act: logout :info: just logout :end;
LOGFILE 2018-01-04 13:55:09 :with: 187-novenabone :act: logout :info: just logout :end;
LOGFILE 2018-01-04 14:22:47 :with: 99-rsv.wapadiume :act: logout :info: just logout :end;
LOGFILE 2018-01-04 15:06:55 :with: 99-rsv.wapadiume :act: logout :info: just logout :end;
LOGFILE 2018-01-04 15:41:55 :with: 187-novenabone :act: logout :info: just logout :end;
LOGFILE 2018-01-04 16:46:05 :with: 99-rsv.wapadiume :act: logout :info: just logout :end;
LOGFILE 2018-01-04 16:50:58 :with: 243-nagisagroup  :act: logout :info: just logout :end;
LOGFILE 2018-01-04 19:41:29 :with: 152-regiana :act: logout :info: just logout :end;
LOGFILE 2018-01-04 21:11:45 :with: 181-lotusgarden :act: logout :info: just logout :end;
