LOGFILE 2017-01-18 11:00:06 :with: 88-sguntary :act: login :info: just login :end;
LOGFILE 2017-01-18 11:36:03 :with: 87-ind :act: login :info: just login :end;
LOGFILE 2017-01-18 11:36:10 :with: 87-ind :act: logout :info: just logout :end;
LOGFILE 2017-01-18 11:52:10 :with: 1-admin :act: login :info: just login :end;
LOGFILE 2017-01-18 13:35:47 :with: 88-sguntary :act: login :info: just login :end;
LOGFILE 2017-01-18 15:03:01 :with: 88-sguntary :act: login :info: just login :end;
LOGFILE 2017-01-18 19:06:42 :with: 88-sguntary :act: login :info: just login :end;
LOGFILE 2017-01-18 21:52:21 :with: 88-sguntary :act: login :info: just login :end;
