LOGFILE 2017-03-29 12:08:00 :with: 88-sguntary :act: logout :info: just logout :end;
LOGFILE 2017-03-29 12:29:20 :with: 121-cathy :act: logout :info: just logout :end;
LOGFILE 2017-03-29 12:29:49 :with: 121-cathy :act: logout :info: just logout :end;
LOGFILE 2017-03-29 12:32:53 :with: 121-cathy :act: logout :info: just logout :end;
LOGFILE 2017-03-29 12:34:03 :with: 122-tifa :act: logout :info: just logout :end;
LOGFILE 2017-03-29 12:52:40 :with: 88-sguntary :act: logout :info: just logout :end;
LOGFILE 2017-03-29 13:14:41 :with: 121-cathy :act: logout :info: just logout :end;
LOGFILE 2017-03-29 14:23:22 :with: 104-sintesaresidence :act: logout :info: just logout :end;
LOGFILE 2017-03-29 14:27:29 :with: 88-sguntary :act: logout :info: just logout :end;
LOGFILE 2017-03-29 14:30:38 :with: 89-calista :act: logout :info: just logout :end;
LOGFILE 2017-03-29 16:57:22 :with: 94-bayuwestlake :act: logout :info: just logout :end;
LOGFILE 2017-03-29 17:25:09 :with: 89-calista :act: logout :info: just logout :end;
LOGFILE 2017-03-29 22:36:04 :with: 88-sguntary :act: logout :info: just logout :end;
LOGFILE 2017-03-29 22:52:58 :with: - :act: logout :info: just logout :end;
