LOGFILE 2017-07-13 12:14:37 :with: 88-sguntary :act: logout :info: just logout :end;
LOGFILE 2017-07-13 12:57:30 :with: 2-demohotel :act: logout :info: just logout :end;
LOGFILE 2017-07-13 13:12:31 :with: 89-calista :act: logout :info: just logout :end;
LOGFILE 2017-07-13 13:44:39 :with: 144-alamubud :act: logout :info: just logout :end;
LOGFILE 2017-07-13 15:11:07 :with: 94-bayuwestlake :act: logout :info: just logout :end;
LOGFILE 2017-07-13 18:54:23 :with: 93-ruditara :act: logout :info: just logout :end;
LOGFILE 2017-07-13 19:22:01 :with: 93-ruditara :act: logout :info: just logout :end;
