LOGFILE 2017-03-07 09:12:01 :with: 89-calista :act: logout :info: just logout :end;
LOGFILE 2017-03-07 09:12:07 :with: 89-calista :act: logout :info: just logout :end;
LOGFILE 2017-03-07 09:28:11 :with: 90-calista.hotel :act: logout :info: just logout :end;
LOGFILE 2017-03-07 11:13:18 :with: 89-calista :act: logout :info: just logout :end;
LOGFILE 2017-03-07 11:59:57 :with: - :act: logout :info: just logout :end;
LOGFILE 2017-03-07 13:59:44 :with: - :act: logout :info: just logout :end;
LOGFILE 2017-03-07 14:01:12 :with: 89-calista :act: logout :info: just logout :end;
LOGFILE 2017-03-07 14:37:10 :with: - :act: logout :info: just logout :end;
LOGFILE 2017-03-07 15:10:34 :with: 90-calista.hotel :act: logout :info: just logout :end;
LOGFILE 2017-03-07 15:24:18 :with: 89-calista :act: logout :info: just logout :end;
LOGFILE 2017-03-07 15:39:31 :with: 103-ekkyki8bali :act: logout :info: just logout :end;
