LOGFILE 2017-06-03 00:01:44 :with: 88-sguntary :act: logout :info: just logout :end;
LOGFILE 2017-06-03 09:29:19 :with: 92-ariegqhotel :act: logout :info: just logout :end;
LOGFILE 2017-06-03 17:03:51 :with: 94-bayuwestlake :act: logout :info: just logout :end;
