LOGFILE 2017-03-27 15:16:28 :with: 89-calista :act: logout :info: just logout :end;
LOGFILE 2017-03-27 16:44:39 :with: 89-calista :act: logout :info: just logout :end;
LOGFILE 2017-03-27 16:44:46 :with: 89-calista :act: logout :info: just logout :end;
LOGFILE 2017-03-27 16:45:04 :with: 119-adminjkt :act: logout :info: just logout :end;
