LOGFILE 2017-01-12 10:33:02 :with: 1-admin :act: login :info: just login :end;
LOGFILE 2017-01-12 14:24:24 :with: 1-admin :act: login :info: just login :end;
LOGFILE 2017-01-12 16:10:12 :with: 88-sguntary :act: login :info: just login :end;
LOGFILE 2017-01-12 16:10:13 :with: 88-sguntary :act: login :info: just login :end;
LOGFILE 2017-01-12 16:16:26 :with: 1-admin :act: login :info: just login :end;
