LOGFILE 2018-02-07 09:30:42 :with: 254-choicestay :act: logout :info: just logout :end;
LOGFILE 2018-02-07 09:38:32 :with: 99-rsv.wapadiume :act: logout :info: just logout :end;
LOGFILE 2018-02-07 12:04:38 :with: 149-mjhdenpasar :act: logout :info: just logout :end;
LOGFILE 2018-02-07 13:15:11 :with: 99-rsv.wapadiume :act: logout :info: just logout :end;
LOGFILE 2018-02-07 13:44:35 :with: 149-mjhdenpasar :act: logout :info: just logout :end;
LOGFILE 2018-02-07 14:01:00 :with: 181-lotusgarden :act: logout :info: just logout :end;
LOGFILE 2018-02-07 17:22:45 :with: 2-demohotel :act: logout :info: just logout :end;
LOGFILE 2018-02-07 17:36:08 :with: 181-lotusgarden :act: logout :info: just logout :end;
LOGFILE 2018-02-07 18:25:23 :with: 254-choicestay :act: logout :info: just logout :end;
LOGFILE 2018-02-07 20:28:05 :with: 181-lotusgarden :act: logout :info: just logout :end;
LOGFILE 2018-02-07 21:22:46 :with: 181-lotusgarden :act: logout :info: just logout :end;
