LOGFILE 2017-09-08 10:41:50 :with: 88-sguntary :act: logout :info: just logout :end;
LOGFILE 2017-09-08 12:34:37 :with: 100-info.wapadiume :act: logout :info: just logout :end;
LOGFILE 2017-09-08 18:42:51 :with: 93-ruditara :act: logout :info: just logout :end;
LOGFILE 2017-09-08 18:44:20 :with: 93-ruditara :act: logout :info: just logout :end;
