LOGFILE 2017-08-07 11:17:49 :with: 88-sguntary :act: logout :info: just logout :end;
LOGFILE 2017-08-07 12:32:48 :with: 87-ind :act: logout :info: just logout :end;
LOGFILE 2017-08-07 12:42:36 :with: 88-sguntary :act: logout :info: just logout :end;
LOGFILE 2017-08-07 12:48:15 :with: 1-setya :act: logout :info: just logout :end;
LOGFILE 2017-08-07 13:07:03 :with: 88-sguntary :act: logout :info: just logout :end;
LOGFILE 2017-08-07 13:10:24 :with: 1-setya :act: logout :info: just logout :end;
LOGFILE 2017-08-07 13:10:43 :with: 88-sguntary :act: logout :info: just logout :end;
LOGFILE 2017-08-07 13:20:46 :with: 1-setya :act: logout :info: just logout :end;
LOGFILE 2017-08-07 15:07:50 :with: 129-melaniebaio :act: logout :info: just logout :end;
LOGFILE 2017-08-07 15:12:38 :with: 93-ruditara :act: logout :info: just logout :end;
LOGFILE 2017-08-07 16:49:59 :with: 93-ruditara :act: logout :info: just logout :end;
LOGFILE 2017-08-07 17:29:48 :with: 88-sguntary :act: logout :info: just logout :end;
LOGFILE 2017-08-07 23:28:26 :with: 148-jatra :act: logout :info: just logout :end;
LOGFILE 2017-08-07 23:33:50 :with: 147-derrint :act: logout :info: just logout :end;
LOGFILE 2017-08-07 23:42:40 :with: 88-sguntary :act: logout :info: just logout :end;
