LOGFILE 2017-04-12 13:26:54 :with: 87-ind :act: logout :info: just logout :end;
LOGFILE 2017-04-12 18:10:51 :with: 93-ruditara :act: logout :info: just logout :end;
LOGFILE 2017-04-12 19:42:10 :with: - :act: logout :info: just logout :end;
