LOGFILE 2017-11-14 09:10:25 :with: 88-sguntary :act: logout :info: just logout :end;
LOGFILE 2017-11-14 12:23:20 :with: 88-sguntary :act: logout :info: just logout :end;
LOGFILE 2017-11-14 12:57:24 :with: 152-regiana :act: logout :info: just logout :end;
LOGFILE 2017-11-14 12:57:39 :with: - :act: logout :info: just logout :end;
LOGFILE 2017-11-14 13:17:32 :with: 101-sunansolo :act: logout :info: just logout :end;
LOGFILE 2017-11-14 14:17:45 :with: 89-calista :act: logout :info: just logout :end;
LOGFILE 2017-11-14 14:49:28 :with: 181-lotusgarden :act: logout :info: just logout :end;
LOGFILE 2017-11-14 15:11:14 :with: 149-mjhdenpasar :act: logout :info: just logout :end;
LOGFILE 2017-11-14 15:11:28 :with: 138-tukadalit :act: logout :info: just logout :end;
LOGFILE 2017-11-14 16:46:05 :with: 152-regiana :act: logout :info: just logout :end;
LOGFILE 2017-11-14 18:59:01 :with: 101-sunansolo :act: logout :info: just logout :end;
