LOGFILE 2017-11-02 11:28:13 :with: 181-lotusgarden :act: logout :info: just logout :end;
LOGFILE 2017-11-02 18:16:01 :with: 101-sunansolo :act: logout :info: just logout :end;
LOGFILE 2017-11-02 18:52:43 :with: 101-sunansolo :act: logout :info: just logout :end;
