LOGFILE 2017-08-15 09:09:08 :with: 88-sguntary :act: logout :info: just logout :end;
LOGFILE 2017-08-15 10:51:25 :with: 88-sguntary :act: logout :info: just logout :end;
LOGFILE 2017-08-15 11:15:06 :with: 88-sguntary :act: logout :info: just logout :end;
LOGFILE 2017-08-15 11:47:35 :with: 88-sguntary :act: logout :info: just logout :end;
LOGFILE 2017-08-15 13:36:47 :with: 88-sguntary :act: logout :info: just logout :end;
LOGFILE 2017-08-15 15:03:35 :with: 88-sguntary :act: logout :info: just logout :end;
