LOGFILE 2018-04-11 19:16:33 :with: 1-setya :act: logout :info: just logout :end;
LOGFILE 2018-04-11 19:16:42 :with: 1-setya :act: logout :info: just logout :end;
LOGFILE 2018-04-11 19:16:57 :with: 2-demohotel :act: logout :info: just logout :end;
LOGFILE 2018-04-11 19:19:12 :with: 1-setya :act: logout :info: just logout :end;
LOGFILE 2018-04-11 19:46:46 :with: 1-setya :act: logout :info: just logout :end;
LOGFILE 2018-04-11 21:17:20 :with: 2-demohotel :act: logout :info: just logout :end;
