LOGFILE 2018-04-09 16:00:08 :with: - :act: logout :info: just logout :end;
LOGFILE 2018-04-09 16:00:32 :with: - :act: logout :info: just logout :end;
LOGFILE 2018-04-09 16:00:40 :with: 2-demohotel :act: logout :info: just logout :end;
LOGFILE 2018-04-09 17:00:49 :with: - :act: logout :info: just logout :end;
