LOGFILE 2018-02-21 00:11:30 :with: 99-rsv.wapadiume :act: logout :info: just logout :end;
LOGFILE 2018-02-21 10:28:42 :with: 255-devnagisa :act: logout :info: just logout :end;
LOGFILE 2018-02-21 11:10:05 :with: 88-sguntary :act: logout :info: just logout :end;
LOGFILE 2018-02-21 11:39:53 :with: 99-rsv.wapadiume :act: logout :info: just logout :end;
LOGFILE 2018-02-21 12:55:37 :with: 272-vmardana :act: logout :info: just logout :end;
LOGFILE 2018-02-21 14:21:42 :with: 243-nagisagroup :act: logout :info: just logout :end;
LOGFILE 2018-02-21 14:44:21 :with: 272-vmardana :act: logout :info: just logout :end;
LOGFILE 2018-02-21 14:48:44 :with: 243-nagisagroup :act: logout :info: just logout :end;
LOGFILE 2018-02-21 15:02:11 :with: 258-vmwinarta :act: logout :info: just logout :end;
LOGFILE 2018-02-21 15:17:15 :with: 243-nagisagroup :act: logout :info: just logout :end;
LOGFILE 2018-02-21 15:28:19 :with: 272-vmardana :act: logout :info: just logout :end;
LOGFILE 2018-02-21 15:30:53 :with: 258-vmwinarta :act: logout :info: just logout :end;
LOGFILE 2018-02-21 15:45:54 :with: 181-lotusgarden :act: logout :info: just logout :end;
LOGFILE 2018-02-21 16:18:14 :with: 272-vmardana :act: logout :info: just logout :end;
LOGFILE 2018-02-21 16:34:51 :with: 255-devnagisa :act: logout :info: just logout :end;
LOGFILE 2018-02-21 16:34:51 :with: 255-devnagisa :act: logout :info: just logout :end;
LOGFILE 2018-02-21 16:34:51 :with: 255-devnagisa :act: logout :info: just logout :end;
LOGFILE 2018-02-21 16:34:51 :with: 255-devnagisa :act: logout :info: just logout :end;
LOGFILE 2018-02-21 16:34:51 :with: 255-devnagisa :act: logout :info: just logout :end;
LOGFILE 2018-02-21 18:05:50 :with: 276-keke :act: logout :info: just logout :end;
LOGFILE 2018-02-21 18:13:17 :with: 243-nagisagroup :act: logout :info: just logout :end;
LOGFILE 2018-02-21 18:16:42 :with: 243-nagisagroup :act: logout :info: just logout :end;
