LOGFILE 2018-03-03 01:24:32 :with: 99-rsv.wapadiume :act: logout :info: just logout :end;
LOGFILE 2018-03-03 08:04:42 :with: 181-lotusgarden :act: logout :info: just logout :end;
LOGFILE 2018-03-03 10:49:07 :with: 133-bahanagh :act: logout :info: just logout :end;
LOGFILE 2018-03-03 11:48:31 :with: 181-lotusgarden :act: logout :info: just logout :end;
LOGFILE 2018-03-03 12:04:40 :with: 282-aomnagisa :act: logout :info: just logout :end;
LOGFILE 2018-03-03 12:35:01 :with: 272-vmardana :act: logout :info: just logout :end;
LOGFILE 2018-03-03 13:25:43 :with: 99-rsv.wapadiume :act: logout :info: just logout :end;
LOGFILE 2018-03-03 15:00:09 :with: 284-bbvputu :act: logout :info: just logout :end;
LOGFILE 2018-03-03 15:37:32 :with: 181-lotusgarden :act: logout :info: just logout :end;
LOGFILE 2018-03-03 18:10:02 :with: 1-setya :act: logout :info: just logout :end;
LOGFILE 2018-03-03 18:12:38 :with: 181-lotusgarden :act: logout :info: just logout :end;
LOGFILE 2018-03-03 18:48:43 :with: 181-lotusgarden :act: logout :info: just logout :end;
LOGFILE 2018-03-03 23:02:55 :with: 282-aomnagisa :act: logout :info: just logout :end;
