LOGFILE 2017-12-26 10:43:42 :with: 93-ruditara :act: logout :info: just logout :end;
LOGFILE 2017-12-26 12:24:03 :with: 99-rsv.wapadiume :act: logout :info: just logout :end;
LOGFILE 2017-12-26 16:22:33 :with: 99-rsv.wapadiume :act: logout :info: just logout :end;
