LOGFILE 2017-03-25 10:37:55 :with: 94-bayuwestlake :act: logout :info: just logout :end;
LOGFILE 2017-03-25 11:02:25 :with: 94-bayuwestlake :act: logout :info: just logout :end;
LOGFILE 2017-03-25 11:30:24 :with: 93-ruditara :act: logout :info: just logout :end;
LOGFILE 2017-03-25 12:33:26 :with: 94-bayuwestlake :act: logout :info: just logout :end;
LOGFILE 2017-03-25 12:48:30 :with: - :act: logout :info: just logout :end;
LOGFILE 2017-03-25 16:57:52 :with: 88-sguntary :act: logout :info: just logout :end;
LOGFILE 2017-03-25 18:44:36 :with: 88-sguntary :act: logout :info: just logout :end;
LOGFILE 2017-03-25 20:28:51 :with: 88-sguntary :act: logout :info: just logout :end;
