LOGFILE 2018-03-22 09:28:37 :with: 93-ruditara :act: logout :info: just logout :end;
LOGFILE 2018-03-22 11:49:15 :with: 276-keke :act: logout :info: just logout :end;
LOGFILE 2018-03-22 11:53:05 :with: 275-sutra :act: logout :info: just logout :end;
LOGFILE 2018-03-22 11:54:44 :with: 276-keke :act: logout :info: just logout :end;
LOGFILE 2018-03-22 15:00:49 :with: 285-bbvsari :act: logout :info: just logout :end;
LOGFILE 2018-03-22 15:45:53 :with: 283-bbvpande :act: logout :info: just logout :end;
LOGFILE 2018-03-22 15:50:00 :with: 101-sunansolo :act: logout :info: just logout :end;
LOGFILE 2018-03-22 16:05:32 :with: 93-ruditara :act: logout :info: just logout :end;
LOGFILE 2018-03-22 16:16:35 :with: 101-sunansolo :act: logout :info: just logout :end;
LOGFILE 2018-03-22 16:39:37 :with: 181-lotusgarden :act: logout :info: just logout :end;
LOGFILE 2018-03-22 17:37:50 :with: 254-choicestay :act: logout :info: just logout :end;
LOGFILE 2018-03-22 17:57:57 :with: 243-nagisagroup :act: logout :info: just logout :end;
LOGFILE 2018-03-22 21:29:06 :with: 181-lotusgarden :act: logout :info: just logout :end;
