LOGFILE 2018-04-02 00:49:12 :with: 152-regiana :act: logout :info: just logout :end;
LOGFILE 2018-04-02 10:48:17 :with: 291-wulandw :act: logout :info: just logout :end;
LOGFILE 2018-04-02 12:12:11 :with: 149-mjhdenpasar :act: logout :info: just logout :end;
LOGFILE 2018-04-02 12:12:41 :with: 329-reservation :act: logout :info: just logout :end;
LOGFILE 2018-04-02 12:14:11 :with: 276-keke :act: logout :info: just logout :end;
LOGFILE 2018-04-02 14:55:01 :with: 181-lotusgarden :act: logout :info: just logout :end;
LOGFILE 2018-04-02 17:03:32 :with: 181-lotusgarden :act: logout :info: just logout :end;
LOGFILE 2018-04-02 18:14:38 :with: 101-sunansolo :act: logout :info: just logout :end;
LOGFILE 2018-04-02 18:17:21 :with: 101-sunansolo :act: logout :info: just logout :end;
LOGFILE 2018-04-02 19:08:54 :with: 101-sunansolo :act: logout :info: just logout :end;
LOGFILE 2018-04-02 19:24:46 :with: 1-setya :act: logout :info: just logout :end;
LOGFILE 2018-04-02 19:40:33 :with: 181-lotusgarden :act: logout :info: just logout :end;
LOGFILE 2018-04-02 22:44:11 :with: 285-bbvsari :act: logout :info: just logout :end;
