LOGFILE 2017-12-27 01:28:04 :with: 99-rsv.wapadiume :act: logout :info: just logout :end;
LOGFILE 2017-12-27 13:16:29 :with: 181-lotusgarden :act: logout :info: just logout :end;
LOGFILE 2017-12-27 15:57:54 :with: 120-dian :act: logout :info: just logout :end;
LOGFILE 2017-12-27 16:17:52 :with: 243-nagisagroup :act: logout :info: just logout :end;
LOGFILE 2017-12-27 16:30:28 :with: 88-sguntary :act: logout :info: just logout :end;
LOGFILE 2017-12-27 16:30:49 :with: 2-demohotel :act: logout :info: just logout :end;
LOGFILE 2017-12-27 16:31:27 :with: 2-demohotel :act: logout :info: just logout :end;
LOGFILE 2017-12-27 16:33:50 :with: 2-demohotel :act: logout :info: just logout :end;
LOGFILE 2017-12-27 16:34:36 :with: 2-demohotel :act: logout :info: just logout :end;
LOGFILE 2017-12-27 22:29:54 :with: 181-lotusgarden :act: logout :info: just logout :end;
