LOGFILE 2018-04-01 15:26:08 :with: 283-bbvpande :act: logout :info: just logout :end;
LOGFILE 2018-04-01 16:37:30 :with: 181-lotusgarden :act: logout :info: just logout :end;
LOGFILE 2018-04-01 22:46:26 :with: 285-bbvsari :act: logout :info: just logout :end;
