LOGFILE 2017-10-10 10:24:56 :with: 88-sguntary :act: logout :info: just logout :end;
LOGFILE 2017-10-10 10:41:48 :with: 130-management :act: logout :info: just logout :end;
LOGFILE 2017-10-10 11:48:52 :with: 88-sguntary :act: logout :info: just logout :end;
LOGFILE 2017-10-10 11:52:04 :with: 129-melaniebaio :act: logout :info: just logout :end;
LOGFILE 2017-10-10 13:45:25 :with: 101-sunansolo :act: logout :info: just logout :end;
LOGFILE 2017-10-10 15:33:14 :with: 152-regiana :act: logout :info: just logout :end;
LOGFILE 2017-10-10 17:23:26 :with: 89-calista :act: logout :info: just logout :end;
LOGFILE 2017-10-10 18:38:11 :with: 89-calista :act: logout :info: just logout :end;
LOGFILE 2017-10-10 18:54:01 :with: 89-calista :act: logout :info: just logout :end;
LOGFILE 2017-10-10 18:54:46 :with: 101-sunansolo :act: logout :info: just logout :end;
LOGFILE 2017-10-10 21:54:18 :with: 152-regiana :act: logout :info: just logout :end;
LOGFILE 2017-10-10 22:20:55 :with: 87-ind :act: logout :info: just logout :end;
LOGFILE 2017-10-10 22:37:49 :with: 87-ind :act: logout :info: just logout :end;
