LOGFILE 2018-03-24 10:04:00 :with: 149-mjhdenpasar :act: logout :info: just logout :end;
LOGFILE 2018-03-24 10:40:28 :with: 99-rsv.wapadiume :act: logout :info: just logout :end;
LOGFILE 2018-03-24 15:35:34 :with: 283-bbvpande :act: logout :info: just logout :end;
LOGFILE 2018-03-24 16:33:45 :with: 255-devnagisa :act: logout :info: just logout :end;
LOGFILE 2018-03-24 16:34:19 :with: - :act: logout :info: just logout :end;
LOGFILE 2018-03-24 16:48:46 :with: 93-ruditara :act: logout :info: just logout :end;
LOGFILE 2018-03-24 22:48:02 :with: 284-bbvputu :act: logout :info: just logout :end;
