203.190.53.51 ~ [2018-08-14 16:23:30] ~ Availability ~ http://thebuking.com/myhotel/includes/inventory/save.php ~ Superior Doubel ~ date : 2018-08-15 | allotment : 0 ~ date : 2018-08-15 | allotment : 1 ~ foiairportsolo ~ Google Chrome
203.190.53.51 ~ [2018-08-14 16:23:33] ~ Availability ~ http://thebuking.com/myhotel/includes/inventory/save.php ~ Superior Doubel ~ date : 2018-08-14 | allotment : 1 ~ date : 2018-08-14 | allotment : 2 ~ foiairportsolo ~ Google Chrome
203.190.53.51 ~ [2018-08-14 16:23:38] ~ Availability ~ http://thebuking.com/myhotel/includes/inventory/save.php ~ Superior Doubel ~ date : 2018-08-15 | allotment : 1 ~ date : 2018-08-15 | allotment : 2 ~ foiairportsolo ~ Google Chrome
203.190.53.51 ~ [2018-08-14 16:23:43] ~ Availability ~ http://thebuking.com/myhotel/includes/inventory/save.php ~ Superior Doubel with Breakfast ~ date : 2018-08-14 | breakfast : null ~ date : 2018-08-14 | breakfast : y ~ foiairportsolo ~ Google Chrome
203.190.53.51 ~ [2018-08-14 16:23:45] ~ Availability ~ http://thebuking.com/myhotel/includes/inventory/save.php ~ Superior Doubel with Breakfast ~ date : 2018-08-15 | breakfast : null ~ date : 2018-08-15 | breakfast : y ~ foiairportsolo ~ Google Chrome
203.190.53.51 ~ [2018-08-14 16:23:49] ~ Availability ~ http://thebuking.com/myhotel/includes/inventory/save.php ~ Superior Twin ~ date : 2018-08-14 | allotment : 0 ~ date : 2018-08-14 | allotment : 2 ~ foiairportsolo ~ Google Chrome
203.190.53.51 ~ [2018-08-14 16:23:52] ~ Availability ~ http://thebuking.com/myhotel/includes/inventory/save.php ~ Superior Twin ~ date : 2018-08-15 | allotment : 0 ~ date : 2018-08-15 | allotment : 2 ~ foiairportsolo ~ Google Chrome
203.190.53.51 ~ [2018-08-14 16:23:59] ~ Availability ~ http://thebuking.com/myhotel/includes/inventory/save.php ~ Superior Twin ~ date : 2018-08-16 | allotment : 0 ~ date : 2018-08-16 | allotment : 2 ~ foiairportsolo ~ Google Chrome
203.190.53.51 ~ [2018-08-14 16:24:07] ~ Availability ~ http://thebuking.com/myhotel/includes/inventory/save.php ~ Superior Doubel ~ date : 2018-08-20 | closeout : y ~ date : 2018-08-20 | closeout : n ~ foiairportsolo ~ Google Chrome
203.190.53.51 ~ [2018-08-14 16:24:08] ~ Availability ~ http://thebuking.com/myhotel/includes/inventory/save.php ~ Superior Doubel with Breakfast ~ date : 2018-08-20 | blackout : y ~ date : 2018-08-20 | blackout : n ~ foiairportsolo ~ Google Chrome
203.190.53.51 ~ [2018-08-14 16:24:09] ~ Availability ~ http://thebuking.com/myhotel/includes/inventory/save.php ~ Superior Twin ~ date : 2018-08-20 | closeout : y ~ date : 2018-08-20 | closeout : n ~ foiairportsolo ~ Google Chrome
203.190.53.51 ~ [2018-08-14 16:24:09] ~ Availability ~ http://thebuking.com/myhotel/includes/inventory/save.php ~ Superior Twin with Breakfast ~ date : 2018-08-20 | blackout : y ~ date : 2018-08-20 | blackout : n ~ foiairportsolo ~ Google Chrome
203.190.53.51 ~ [2018-08-14 16:24:11] ~ Availability ~ http://thebuking.com/myhotel/includes/inventory/save.php ~ Executive Room ~ date : 2018-08-20 | closeout : y ~ date : 2018-08-20 | closeout : n ~ foiairportsolo ~ Google Chrome
203.190.53.51 ~ [2018-08-14 16:24:11] ~ Availability ~ http://thebuking.com/myhotel/includes/inventory/save.php ~ Executive Room with Breakfast ~ date : 2018-08-20 | blackout : y ~ date : 2018-08-20 | blackout : n ~ foiairportsolo ~ Google Chrome
203.190.53.51 ~ [2018-08-14 16:24:17] ~ Availability ~ http://thebuking.com/myhotel/includes/inventory/save.php ~ Superior Doubel ~ date : 2018-08-20 | allotment : 0 ~ date : 2018-08-20 | allotment : 2 ~ foiairportsolo ~ Google Chrome
203.190.53.51 ~ [2018-08-14 16:24:18] ~ Availability ~ http://thebuking.com/myhotel/includes/inventory/save.php ~ Superior Doubel with Breakfast ~ date : 2018-08-20 | breakfast : null ~ date : 2018-08-20 | breakfast : y ~ foiairportsolo ~ Google Chrome
203.190.53.51 ~ [2018-08-14 16:24:28] ~ Availability ~ http://thebuking.com/myhotel/includes/inventory/save.php ~ Superior Twin ~ date : 2018-08-20 | allotment : 0 ~ date : 2018-08-20 | allotment : 2 ~ foiairportsolo ~ Google Chrome
203.190.53.51 ~ [2018-08-14 16:24:29] ~ Availability ~ http://thebuking.com/myhotel/includes/inventory/save.php ~ Superior Twin with Breakfast ~ date : 2018-08-20 | breakfast : null ~ date : 2018-08-20 | breakfast : y ~ foiairportsolo ~ Google Chrome
203.190.53.51 ~ [2018-08-14 16:24:36] ~ Availability ~ http://thebuking.com/myhotel/includes/inventory/save.php ~ Executive Room ~ date : 2018-08-20 | allotment : 0 ~ date : 2018-08-20 | allotment : 2 ~ foiairportsolo ~ Google Chrome
203.190.53.51 ~ [2018-08-14 16:24:50] ~ Availability ~ http://thebuking.com/myhotel/includes/inventory/save.php ~ Executive Room with Breakfast ~ date : 2018-08-20 | rate : 0 ~ date : 2018-08-20 | rate : 330000 ~ foiairportsolo ~ Google Chrome
203.190.53.51 ~ [2018-08-14 16:24:51] ~ Availability ~ http://thebuking.com/myhotel/includes/inventory/save.php ~ Executive Room with Breakfast ~ date : 2018-08-20 | breakfast : null ~ date : 2018-08-20 | breakfast : y ~ foiairportsolo ~ Google Chrome
203.190.53.51 ~ [2018-08-14 16:24:55] ~ Availability ~ http://thebuking.com/myhotel/includes/inventory/save.php ~ Executive Room ~ date : 2018-08-14 | allotment : 0 ~ date : 2018-08-14 | allotment : 2 ~ foiairportsolo ~ Google Chrome
203.190.53.51 ~ [2018-08-14 16:24:59] ~ Availability ~ http://thebuking.com/myhotel/includes/inventory/save.php ~ Executive Room ~ date : 2018-08-15 | allotment : 0 ~ date : 2018-08-15 | allotment : 2 ~ foiairportsolo ~ Google Chrome
203.190.53.51 ~ [2018-08-14 16:25:10] ~ Availability ~ http://thebuking.com/myhotel/includes/inventory/save.php ~ Executive Room ~ date : 2018-08-17 | allotment : 0 ~ date : 2018-08-17 | allotment : 2 ~ foiairportsolo ~ Google Chrome
203.190.53.51 ~ [2018-08-14 16:25:14] ~ Availability ~ http://thebuking.com/myhotel/includes/inventory/save.php ~ Executive Room ~ date : 2018-08-16 | allotment : 0 ~ date : 2018-08-16 | allotment : 2 ~ foiairportsolo ~ Google Chrome
203.190.53.51 ~ [2018-08-14 16:25:15] ~ Availability ~ http://thebuking.com/myhotel/includes/inventory/save.php ~ Executive Room with Breakfast ~ date : 2018-08-14 | breakfast : null ~ date : 2018-08-14 | breakfast : y ~ foiairportsolo ~ Google Chrome
203.190.53.51 ~ [2018-08-14 16:25:16] ~ Availability ~ http://thebuking.com/myhotel/includes/inventory/save.php ~ Executive Room with Breakfast ~ date : 2018-08-15 | breakfast : null ~ date : 2018-08-15 | breakfast : y ~ foiairportsolo ~ Google Chrome
203.190.53.51 ~ [2018-08-14 16:25:17] ~ Availability ~ http://thebuking.com/myhotel/includes/inventory/save.php ~ Executive Room with Breakfast ~ date : 2018-08-16 | breakfast : null ~ date : 2018-08-16 | breakfast : y ~ foiairportsolo ~ Google Chrome
203.190.53.51 ~ [2018-08-14 16:25:19] ~ Availability ~ http://thebuking.com/myhotel/includes/inventory/save.php ~ Executive Room with Breakfast ~ date : 2018-08-17 | breakfast : null ~ date : 2018-08-17 | breakfast : y ~ foiairportsolo ~ Google Chrome
203.190.53.51 ~ [2018-08-14 16:25:57] ~ Availability ~ http://thebuking.com/myhotel/includes/inventory/save.php ~ Superior Doubel with Breakfast ~ date : 2018-08-20 | rate : 0 ~ date : 2018-08-20 | rate : 240000 ~ foiairportsolo ~ Google Chrome
203.190.53.51 ~ [2018-08-14 16:26:07] ~ Availability ~ http://thebuking.com/myhotel/includes/inventory/save.php ~ Superior Doubel with Breakfast ~ date : 2018-08-16 | rate : 235000 ~ date : 2018-08-16 | rate : 240000 ~ foiairportsolo ~ Google Chrome
203.190.53.51 ~ [2018-08-14 16:26:13] ~ Availability ~ http://thebuking.com/myhotel/includes/inventory/save.php ~ Superior Doubel with Breakfast ~ date : 2018-08-15 | rate : 235000 ~ date : 2018-08-15 | rate : 240000 ~ foiairportsolo ~ Google Chrome
203.190.53.51 ~ [2018-08-14 16:26:15] ~ Availability ~ http://thebuking.com/myhotel/includes/inventory/save.php ~ Superior Doubel with Breakfast ~ date : 2018-08-14 | rate : 235000 ~ date : 2018-08-14 | rate : 240000 ~ foiairportsolo ~ Google Chrome
203.190.53.51 ~ [2018-08-14 16:26:49] ~ Availability ~ http://thebuking.com/myhotel/includes/inventory/save.php ~ Superior Doubel ~ date : 2018-08-21 | allotment : 0 ~ date : 2018-08-21 | allotment : 2 ~ foiairportsolo ~ Google Chrome
203.190.53.51 ~ [2018-08-14 16:26:51] ~ Availability ~ http://thebuking.com/myhotel/includes/inventory/save.php ~ Superior Doubel ~ date : 2018-08-22 | allotment : 0 ~ date : 2018-08-22 | allotment : 2 ~ foiairportsolo ~ Google Chrome
203.190.53.51 ~ [2018-08-14 16:26:54] ~ Availability ~ http://thebuking.com/myhotel/includes/inventory/save.php ~ Superior Doubel ~ date : 2018-08-23 | allotment : 0 ~ date : 2018-08-23 | allotment : 2 ~ foiairportsolo ~ Google Chrome
203.190.53.51 ~ [2018-08-14 16:26:57] ~ Availability ~ http://thebuking.com/myhotel/includes/inventory/save.php ~ Superior Doubel with Breakfast ~ date : 2018-08-23 | rate : 0 ~ date : 2018-08-23 | rate : 240000 ~ foiairportsolo ~ Google Chrome
203.190.53.51 ~ [2018-08-14 16:26:59] ~ Availability ~ http://thebuking.com/myhotel/includes/inventory/save.php ~ Superior Doubel with Breakfast ~ date : 2018-08-22 | rate : 0 ~ date : 2018-08-22 | rate : 240000 ~ foiairportsolo ~ Google Chrome
203.190.53.51 ~ [2018-08-14 16:27:02] ~ Availability ~ http://thebuking.com/myhotel/includes/inventory/save.php ~ Superior Doubel with Breakfast ~ date : 2018-08-21 | rate : 0 ~ date : 2018-08-21 | rate : 240000 ~ foiairportsolo ~ Google Chrome
203.190.53.51 ~ [2018-08-14 16:27:03] ~ Availability ~ http://thebuking.com/myhotel/includes/inventory/save.php ~ Superior Doubel with Breakfast ~ date : 2018-08-21 | breakfast : null ~ date : 2018-08-21 | breakfast : y ~ foiairportsolo ~ Google Chrome
203.190.53.51 ~ [2018-08-14 16:27:04] ~ Availability ~ http://thebuking.com/myhotel/includes/inventory/save.php ~ Superior Doubel with Breakfast ~ date : 2018-08-22 | breakfast : null ~ date : 2018-08-22 | breakfast : y ~ foiairportsolo ~ Google Chrome
203.190.53.51 ~ [2018-08-14 16:27:05] ~ Availability ~ http://thebuking.com/myhotel/includes/inventory/save.php ~ Superior Doubel with Breakfast ~ date : 2018-08-23 | breakfast : null ~ date : 2018-08-23 | breakfast : y ~ foiairportsolo ~ Google Chrome
203.190.53.51 ~ [2018-08-14 16:27:08] ~ Availability ~ http://thebuking.com/myhotel/includes/inventory/save.php ~ Superior Doubel with Breakfast ~ date : 2018-08-16 | breakfast : null ~ date : 2018-08-16 | breakfast : y ~ foiairportsolo ~ Google Chrome
203.190.53.51 ~ [2018-08-14 16:27:18] ~ Availability ~ http://thebuking.com/myhotel/includes/inventory/save.php ~ Superior Twin with Breakfast ~ date : 2018-08-14 | rate : 0 ~ date : 2018-08-14 | rate : 235000 ~ foiairportsolo ~ Google Chrome
203.190.53.51 ~ [2018-08-14 16:27:23] ~ Availability ~ http://thebuking.com/myhotel/includes/inventory/save.php ~ Superior Twin with Breakfast ~ date : 2018-08-15 | rate : 0 ~ date : 2018-08-15 | rate : 235000 ~ foiairportsolo ~ Google Chrome
203.190.53.51 ~ [2018-08-14 16:27:27] ~ Availability ~ http://thebuking.com/myhotel/includes/inventory/save.php ~ Superior Twin with Breakfast ~ date : 2018-08-16 | rate : 0 ~ date : 2018-08-16 | rate : 235000 ~ foiairportsolo ~ Google Chrome
203.190.53.51 ~ [2018-08-14 16:27:32] ~ Availability ~ http://thebuking.com/myhotel/includes/inventory/save.php ~ Superior Twin with Breakfast ~ date : 2018-08-20 | rate : 0 ~ date : 2018-08-20 | rate : 235000 ~ foiairportsolo ~ Google Chrome
203.190.53.51 ~ [2018-08-14 16:28:12] ~ Availability ~ http://thebuking.com/myhotel/includes/inventory/save.php ~ Superior Twin with Breakfast ~ date : 2018-08-21 | rate : 0 ~ date : 2018-08-21 | rate : 235000 ~ foiairportsolo ~ Google Chrome
203.190.53.51 ~ [2018-08-14 16:28:15] ~ Availability ~ http://thebuking.com/myhotel/includes/inventory/save.php ~ Superior Twin with Breakfast ~ date : 2018-08-22 | rate : 0 ~ date : 2018-08-22 | rate : 235000 ~ foiairportsolo ~ Google Chrome
203.190.53.51 ~ [2018-08-14 16:28:32] ~ Availability ~ http://thebuking.com/myhotel/includes/inventory/save.php ~ Superior Twin with Breakfast ~ date : 2018-08-23 | rate : 0 ~ date : 2018-08-23 | rate : 235000 ~ foiairportsolo ~ Google Chrome
203.190.53.51 ~ [2018-08-14 16:28:38] ~ Availability ~ http://thebuking.com/myhotel/includes/inventory/save.php ~ Superior Twin ~ date : 2018-08-21 | allotment : 0 ~ date : 2018-08-21 | allotment : 2 ~ foiairportsolo ~ Google Chrome
203.190.53.51 ~ [2018-08-14 16:28:39] ~ Availability ~ http://thebuking.com/myhotel/includes/inventory/save.php ~ Superior Twin ~ date : 2018-08-22 | allotment : 0 ~ date : 2018-08-22 | allotment : 2 ~ foiairportsolo ~ Google Chrome
203.190.53.51 ~ [2018-08-14 16:28:44] ~ Availability ~ http://thebuking.com/myhotel/includes/inventory/save.php ~ Superior Twin ~ date : 2018-08-23 | allotment : 0 ~ date : 2018-08-23 | allotment : 2 ~ foiairportsolo ~ Google Chrome
203.190.53.51 ~ [2018-08-14 16:28:50] ~ Availability ~ http://thebuking.com/myhotel/includes/inventory/save.php ~ Executive Room ~ date : 2018-08-21 | allotment : 0 ~ date : 2018-08-21 | allotment : 2 ~ foiairportsolo ~ Google Chrome
203.190.53.51 ~ [2018-08-14 16:28:52] ~ Availability ~ http://thebuking.com/myhotel/includes/inventory/save.php ~ Executive Room ~ date : 2018-08-22 | allotment : 0 ~ date : 2018-08-22 | allotment : 2 ~ foiairportsolo ~ Google Chrome
203.190.53.51 ~ [2018-08-14 16:28:54] ~ Availability ~ http://thebuking.com/myhotel/includes/inventory/save.php ~ Executive Room ~ date : 2018-08-23 | allotment : 0 ~ date : 2018-08-23 | allotment : 2 ~ foiairportsolo ~ Google Chrome
203.190.53.51 ~ [2018-08-14 16:29:08] ~ Availability ~ http://thebuking.com/myhotel/includes/inventory/save.php ~ Executive Room with Breakfast ~ date : 2018-08-23 | rate : 0 ~ date : 2018-08-23 | rate : 330000 ~ foiairportsolo ~ Google Chrome
203.190.53.51 ~ [2018-08-14 16:29:14] ~ Availability ~ http://thebuking.com/myhotel/includes/inventory/save.php ~ Executive Room with Breakfast ~ date : 2018-08-22 | rate : 0 ~ date : 2018-08-22 | rate : 330000 ~ foiairportsolo ~ Google Chrome
203.190.53.51 ~ [2018-08-14 16:29:19] ~ Availability ~ http://thebuking.com/myhotel/includes/inventory/save.php ~ Executive Room with Breakfast ~ date : 2018-08-21 | rate : 0 ~ date : 2018-08-21 | rate : 330000 ~ foiairportsolo ~ Google Chrome
203.190.53.51 ~ [2018-08-14 16:29:24] ~ Availability ~ http://thebuking.com/myhotel/includes/inventory/save.php ~ Executive Room with Breakfast ~ date : 2018-08-17 | rate : 0 ~ date : 2018-08-17 | rate : 330000 ~ foiairportsolo ~ Google Chrome
203.190.53.51 ~ [2018-08-14 16:29:28] ~ Availability ~ http://thebuking.com/myhotel/includes/inventory/save.php ~ Executive Room with Breakfast ~ date : 2018-08-16 | rate : 0 ~ date : 2018-08-16 | rate : 330000 ~ foiairportsolo ~ Google Chrome
203.190.53.51 ~ [2018-08-14 16:29:36] ~ Availability ~ http://thebuking.com/myhotel/includes/inventory/save.php ~ Executive Room with Breakfast ~ date : 2018-08-15 | rate : 0 ~ date : 2018-08-15 | rate : 330000 ~ foiairportsolo ~ Google Chrome
203.190.53.51 ~ [2018-08-14 16:29:45] ~ Availability ~ http://thebuking.com/myhotel/includes/inventory/save.php ~ Executive Room with Breakfast ~ date : 2018-08-14 | rate : 0 ~ date : 2018-08-14 | rate : 330000 ~ foiairportsolo ~ Google Chrome
203.190.53.51 ~ [2018-08-14 16:29:45] ~ Availability ~ http://thebuking.com/myhotel/includes/inventory/save.php ~ Executive Room with Breakfast ~ date : 2018-08-23 | breakfast : null ~ date : 2018-08-23 | breakfast : y ~ foiairportsolo ~ Google Chrome
203.190.53.51 ~ [2018-08-14 16:29:46] ~ Availability ~ http://thebuking.com/myhotel/includes/inventory/save.php ~ Executive Room with Breakfast ~ date : 2018-08-22 | breakfast : null ~ date : 2018-08-22 | breakfast : y ~ foiairportsolo ~ Google Chrome
203.190.53.51 ~ [2018-08-14 16:29:48] ~ Availability ~ http://thebuking.com/myhotel/includes/inventory/save.php ~ Executive Room with Breakfast ~ date : 2018-08-21 | breakfast : null ~ date : 2018-08-21 | breakfast : y ~ foiairportsolo ~ Google Chrome
203.190.53.51 ~ [2018-08-14 16:29:52] ~ Availability ~ http://thebuking.com/myhotel/includes/inventory/save.php ~ Superior Twin with Breakfast ~ date : 2018-08-14 | breakfast : null ~ date : 2018-08-14 | breakfast : y ~ foiairportsolo ~ Google Chrome
203.190.53.51 ~ [2018-08-14 16:29:54] ~ Availability ~ http://thebuking.com/myhotel/includes/inventory/save.php ~ Superior Twin with Breakfast ~ date : 2018-08-15 | breakfast : null ~ date : 2018-08-15 | breakfast : y ~ foiairportsolo ~ Google Chrome
203.190.53.51 ~ [2018-08-14 16:29:56] ~ Availability ~ http://thebuking.com/myhotel/includes/inventory/save.php ~ Superior Twin with Breakfast ~ date : 2018-08-16 | breakfast : null ~ date : 2018-08-16 | breakfast : y ~ foiairportsolo ~ Google Chrome
203.190.53.51 ~ [2018-08-14 16:29:59] ~ Availability ~ http://thebuking.com/myhotel/includes/inventory/save.php ~ Superior Twin with Breakfast ~ date : 2018-08-21 | breakfast : null ~ date : 2018-08-21 | breakfast : y ~ foiairportsolo ~ Google Chrome
203.190.53.51 ~ [2018-08-14 16:30:00] ~ Availability ~ http://thebuking.com/myhotel/includes/inventory/save.php ~ Superior Twin with Breakfast ~ date : 2018-08-22 | breakfast : null ~ date : 2018-08-22 | breakfast : y ~ foiairportsolo ~ Google Chrome
203.190.53.51 ~ [2018-08-14 16:30:02] ~ Availability ~ http://thebuking.com/myhotel/includes/inventory/save.php ~ Superior Twin with Breakfast ~ date : 2018-08-23 | breakfast : null ~ date : 2018-08-23 | breakfast : y ~ foiairportsolo ~ Google Chrome
203.190.53.51 ~ [2018-08-18 21:27:55] ~ Availability ~ http://thebuking.com/myhotel/includes/inventory/save.php ~ Superior Twin ~ date : 2018-08-18 | closeout : y ~ date : 2018-08-18 | closeout : n ~ foiairportsolo ~ Google Chrome
203.190.53.51 ~ [2018-08-18 21:27:55] ~ Availability ~ http://thebuking.com/myhotel/includes/inventory/save.php ~ Superior Twin with Breakfast ~ date : 2018-08-18 | blackout : y ~ date : 2018-08-18 | blackout : n ~ foiairportsolo ~ Google Chrome
203.190.53.51 ~ [2018-08-18 21:28:01] ~ Availability ~ http://thebuking.com/myhotel/includes/inventory/save.php ~ Superior Twin ~ date : 2018-08-18 | allotment : 0 ~ date : 2018-08-18 | allotment : 1 ~ foiairportsolo ~ Google Chrome
203.190.53.51 ~ [2018-08-18 21:28:08] ~ Availability ~ http://thebuking.com/myhotel/includes/inventory/save.php ~ Superior Twin with Breakfast ~ date : 2018-08-18 | rate : 0 ~ date : 2018-08-18 | rate : 235000 ~ foiairportsolo ~ Google Chrome
203.190.53.51 ~ [2018-08-18 22:06:03] ~ Availability ~ http://thebuking.com/myhotel/includes/inventory/save.php ~ Superior Doubel ~ date : 2018-08-20 | closeout : y ~ date : 2018-08-20 | closeout : n ~ foiairportsolo ~ Google Chrome
203.190.53.51 ~ [2018-08-18 22:06:03] ~ Availability ~ http://thebuking.com/myhotel/includes/inventory/save.php ~ Superior Doubel with Breakfast ~ date : 2018-08-20 | blackout : y ~ date : 2018-08-20 | blackout : n ~ foiairportsolo ~ Google Chrome
203.190.53.51 ~ [2018-08-18 22:06:04] ~ Availability ~ http://thebuking.com/myhotel/includes/inventory/save.php ~ Superior Doubel with Breakfast ~ date : 2018-08-20 | blackout : n ~ date : 2018-08-20 | blackout : y ~ foiairportsolo ~ Google Chrome
203.190.53.51 ~ [2018-08-18 22:06:05] ~ Availability ~ http://thebuking.com/myhotel/includes/inventory/save.php ~ Superior Doubel with Breakfast ~ date : 2018-08-20 | blackout : y ~ date : 2018-08-20 | blackout : n ~ foiairportsolo ~ Google Chrome
203.190.53.51 ~ [2018-08-18 22:06:06] ~ Availability ~ http://thebuking.com/myhotel/includes/inventory/save.php ~ Superior Twin ~ date : 2018-08-20 | closeout : y ~ date : 2018-08-20 | closeout : n ~ foiairportsolo ~ Google Chrome
203.190.53.51 ~ [2018-08-18 22:06:07] ~ Availability ~ http://thebuking.com/myhotel/includes/inventory/save.php ~ Superior Twin with Breakfast ~ date : 2018-08-20 | blackout : y ~ date : 2018-08-20 | blackout : n ~ foiairportsolo ~ Google Chrome
203.190.53.51 ~ [2018-08-18 22:06:07] ~ Availability ~ http://thebuking.com/myhotel/includes/inventory/save.php ~ Executive Room ~ date : 2018-08-20 | closeout : y ~ date : 2018-08-20 | closeout : n ~ foiairportsolo ~ Google Chrome
203.190.53.51 ~ [2018-08-18 22:06:08] ~ Availability ~ http://thebuking.com/myhotel/includes/inventory/save.php ~ Executive Room with Breakfast ~ date : 2018-08-20 | blackout : y ~ date : 2018-08-20 | blackout : n ~ foiairportsolo ~ Google Chrome
203.190.53.51 ~ [2018-08-19 14:25:14] ~ Availability ~ http://thebuking.com/myhotel/includes/inventory/save.php ~ Superior Doubel with Breakfast ~ date : 2018-08-19 | blackout : y ~ date : 2018-08-19 | blackout : n ~  ~ Google Chrome
203.190.53.51 ~ [2018-08-19 14:25:16] ~ Availability ~ http://thebuking.com/myhotel/includes/inventory/save.php ~ Superior Doubel ~ date : 2018-08-19 | closeout : y ~ date : 2018-08-19 | closeout : n ~  ~ Google Chrome
203.190.53.51 ~ [2018-08-19 14:25:24] ~ Availability ~ http://thebuking.com/myhotel/includes/inventory/save.php ~ Superior Doubel ~ date : 2018-08-19 | allotment : 1 ~ date : 2018-08-19 | allotment : 2 ~  ~ Google Chrome
203.190.53.51 ~ [2018-08-19 14:34:45] ~ Availability ~ http://thebuking.com/myhotel/includes/inventory/save.php ~ Superior Doubel ~ date : 2018-08-19 | closeout : n ~ date : 2018-08-19 | closeout : y ~  ~ Google Chrome
203.190.53.51 ~ [2018-08-19 14:34:46] ~ Availability ~ http://thebuking.com/myhotel/includes/inventory/save.php ~ Superior Doubel with Breakfast ~ date : 2018-08-19 | blackout : n ~ date : 2018-08-19 | blackout : y ~  ~ Google Chrome
203.190.53.51 ~ [2018-08-19 14:34:49] ~ Availability ~ http://thebuking.com/myhotel/includes/inventory/save.php ~ Superior Doubel ~ date : 2018-08-19 | allotment : 0 ~ date : 2018-08-19 | allotment : 0 ~  ~ Google Chrome
203.190.53.51 ~ [2018-08-20 18:58:51] ~ Availability ~ http://thebuking.com/myhotel/includes/inventory/save.php ~ Superior Twin ~ date : 2018-08-20 | allotment : 0 ~ date : 2018-08-20 | allotment : 2 ~  ~ Google Chrome
203.190.53.51 ~ [2018-08-20 18:58:56] ~ Availability ~ http://thebuking.com/myhotel/includes/inventory/save.php ~ Superior Doubel ~ date : 2018-08-20 | allotment : 1 ~ date : 2018-08-20 | allotment : 2 ~  ~ Google Chrome
203.190.53.51 ~ [2018-08-20 18:59:02] ~ Availability ~ http://thebuking.com/myhotel/includes/inventory/save.php ~ Executive Room ~ date : 2018-08-20 | allotment : 0 ~ date : 2018-08-20 | allotment : 2 ~  ~ Google Chrome
203.190.53.53 ~ [2018-08-23 19:04:38] ~ Availability ~ http://thebuking.com/myhotel/includes/inventory/save.php ~ Superior Doubel ~ date : 2018-08-23 | closeout : null ~ date : 2018-08-23 | closeout : y ~ foiairportsolo ~ Google Chrome
203.190.53.53 ~ [2018-08-23 19:07:19] ~ Availability ~ http://thebuking.com/myhotel/includes/inventory/save.php ~ Superior Doubel ~ date : 2018-08-23 | allotment : 1 ~ date : 2018-08-23 | allotment : 0 ~ foiairportsolo ~ Google Chrome
203.190.53.53 ~ [2018-08-23 19:24:03] ~ Availability ~ http://thebuking.com/myhotel/includes/inventory/save.php ~ Superior Doubel ~ date : 2018-08-23 | allotment : 0 ~ date : 2018-08-23 | allotment : 1 ~ foiairportsolo ~ Google Chrome
203.190.53.53 ~ [2018-08-23 19:24:06] ~ Availability ~ http://thebuking.com/myhotel/includes/inventory/save.php ~ Superior Doubel ~ date : 2018-08-23 | closeout : y ~ date : 2018-08-23 | closeout : n ~ foiairportsolo ~ Google Chrome
203.190.53.53 ~ [2018-08-23 19:24:26] ~ Availability ~ http://thebuking.com/myhotel/includes/inventory/save.php ~ Superior Doubel ~ date : 2018-08-24 | allotment : 0 ~ date : 2018-08-24 | allotment : 1 ~ foiairportsolo ~ Google Chrome
203.190.53.53 ~ [2018-08-23 19:24:33] ~ Availability ~ http://thebuking.com/myhotel/includes/inventory/save.php ~ Superior Doubel ~ date : 2018-08-25 | allotment : 0 ~ date : 2018-08-25 | allotment : 1 ~ foiairportsolo ~ Google Chrome
203.190.53.53 ~ [2018-08-23 19:27:32] ~ Availability ~ http://thebuking.com/myhotel/includes/inventory/save.php ~ Superior Doubel ~ date : 2018-08-23 | allotment : 99 ~ date : 2018-08-23 | allotment : 1 ~ foiairportsolo ~ Google Chrome
203.190.53.53 ~ [2018-08-23 19:27:36] ~ Availability ~ http://thebuking.com/myhotel/includes/inventory/save.php ~ Superior Doubel ~ date : 2018-08-24 | allotment : 99 ~ date : 2018-08-24 | allotment : 1 ~ foiairportsolo ~ Google Chrome
203.190.53.53 ~ [2018-08-23 19:27:41] ~ Availability ~ http://thebuking.com/myhotel/includes/inventory/save.php ~ Superior Doubel ~ date : 2018-08-25 | allotment : 99 ~ date : 2018-08-25 | allotment : 1 ~ foiairportsolo ~ Google Chrome
203.190.53.53 ~ [2018-08-23 19:27:46] ~ Availability ~ http://thebuking.com/myhotel/includes/inventory/save.php ~ Superior Doubel ~ date : 2018-08-26 | allotment : 99 ~ date : 2018-08-26 | allotment : 0 ~ foiairportsolo ~ Google Chrome
203.190.53.53 ~ [2018-08-23 19:27:50] ~ Availability ~ http://thebuking.com/myhotel/includes/inventory/save.php ~ Superior Doubel ~ date : 2018-08-27 | allotment : 99 ~ date : 2018-08-27 | allotment : 0 ~ foiairportsolo ~ Google Chrome
203.190.53.53 ~ [2018-08-23 19:27:55] ~ Availability ~ http://thebuking.com/myhotel/includes/inventory/save.php ~ Superior Doubel ~ date : 2018-08-28 | allotment : 99 ~ date : 2018-08-28 | allotment : 0 ~ foiairportsolo ~ Google Chrome
203.190.53.53 ~ [2018-08-23 19:28:00] ~ Availability ~ http://thebuking.com/myhotel/includes/inventory/save.php ~ Superior Doubel ~ date : 2018-08-29 | allotment : 99 ~ date : 2018-08-29 | allotment : 0 ~ foiairportsolo ~ Google Chrome
203.190.53.53 ~ [2018-08-23 19:28:36] ~ Availability ~ http://thebuking.com/myhotel/includes/inventory/save.php ~ Superior Doubel with Breakfast ~ date : 2018-08-24 | rate : 0 ~ date : 2018-08-24 | rate : 235000 ~ foiairportsolo ~ Google Chrome
203.190.53.53 ~ [2018-08-23 19:28:41] ~ Availability ~ http://thebuking.com/myhotel/includes/inventory/save.php ~ Superior Doubel with Breakfast ~ date : 2018-08-25 | rate : 0 ~ date : 2018-08-25 | rate : 235000 ~ foiairportsolo ~ Google Chrome
203.190.53.53 ~ [2018-08-23 20:09:29] ~ Availability ~ http://thebuking.com/myhotel/includes/inventory/save.php ~ Superior Doubel with Breakfast ~ date : 2018-08-24 | rate : 235000 ~ date : 2018-08-24 | rate :  ~  ~ Google Chrome
203.190.53.53 ~ [2018-08-23 20:09:33] ~ Availability ~ http://thebuking.com/myhotel/includes/inventory/save.php ~ Superior Doubel with Breakfast ~ date : 2018-08-25 | rate : 235000 ~ date : 2018-08-25 | rate :  ~  ~ Google Chrome
203.190.53.53 ~ [2018-08-27 12:03:43] ~ Availability ~ http://thebuking.com/myhotel/includes/inventory/save.php ~ Superior Twin with Breakfast ~ date : 2018-08-27 | rate : 240000 ~ date : 2018-08-27 | rate : 220000 ~ foiairportsolo ~ Google Chrome
203.190.53.53 ~ [2018-08-27 12:03:48] ~ Availability ~ http://thebuking.com/myhotel/includes/inventory/save.php ~ Superior Twin with Breakfast ~ date : 2018-08-28 | rate : 240000 ~ date : 2018-08-28 | rate : 220000 ~ foiairportsolo ~ Google Chrome
203.190.53.53 ~ [2018-08-27 12:03:55] ~ Availability ~ http://thebuking.com/myhotel/includes/inventory/save.php ~ Executive Room ~ date : 2018-08-27 | allotment : 0 ~ date : 2018-08-27 | allotment : 2 ~ foiairportsolo ~ Google Chrome
203.190.53.53 ~ [2018-08-27 12:03:58] ~ Availability ~ http://thebuking.com/myhotel/includes/inventory/save.php ~ Executive Room ~ date : 2018-08-28 | allotment : 0 ~ date : 2018-08-28 | allotment : 2 ~ foiairportsolo ~ Google Chrome
203.190.53.53 ~ [2018-08-27 12:04:12] ~ Availability ~ http://thebuking.com/myhotel/includes/inventory/save.php ~ Executive Room with Breakfast ~ date : 2018-08-27 | rate : 0 ~ date : 2018-08-27 | rate : 340000 ~ foiairportsolo ~ Google Chrome
203.190.53.53 ~ [2018-08-27 12:04:16] ~ Availability ~ http://thebuking.com/myhotel/includes/inventory/save.php ~ Executive Room with Breakfast ~ date : 2018-08-28 | rate : 0 ~ date : 2018-08-28 | rate : 340000 ~ foiairportsolo ~ Google Chrome
