LOGFILE 2017-10-04 12:17:38 :with: 88-sguntary :act: logout :info: just logout :end;
LOGFILE 2017-10-04 18:40:47 :with: 101-sunansolo :act: logout :info: just logout :end;
LOGFILE 2017-10-04 23:48:30 :with: 88-sguntary :act: logout :info: just logout :end;
