LOGFILE 2017-12-22 10:03:06 :with: 243-nagisagroup :act: logout :info: just logout :end;
LOGFILE 2017-12-22 10:19:30 :with: 88-sguntary :act: logout :info: just logout :end;
LOGFILE 2017-12-22 11:13:33 :with: 181-lotusgarden :act: logout :info: just logout :end;
LOGFILE 2017-12-22 11:34:23 :with: 99-rsv.wapadiume :act: logout :info: just logout :end;
LOGFILE 2017-12-22 14:48:08 :with: 93-ruditara :act: logout :info: just logout :end;
LOGFILE 2017-12-22 19:32:05 :with: 101-sunansolo :act: logout :info: just logout :end;
LOGFILE 2017-12-22 19:36:32 :with: 93-ruditara :act: logout :info: just logout :end;
LOGFILE 2017-12-22 21:26:05 :with: 152-regiana :act: logout :info: just logout :end;
LOGFILE 2017-12-22 21:33:32 :with: 152-regiana :act: logout :info: just logout :end;
