LOGFILE 2018-03-11 14:21:41 :with: 99-rsv.wapadiume :act: logout :info: just logout :end;
LOGFILE 2018-03-11 22:29:09 :with: 272-vmardana :act: logout :info: just logout :end;
LOGFILE 2018-03-11 22:45:43 :with: 283-bbvpande :act: logout :info: just logout :end;
