LOGFILE 2018-02-13 08:12:43 :with: 254-choicestay :act: logout :info: just logout :end;
LOGFILE 2018-02-13 10:22:48 :with: 210-demohotelv :act: logout :info: just logout :end;
LOGFILE 2018-02-13 10:26:44 :with: 1-setya :act: logout :info: just logout :end;
LOGFILE 2018-02-13 10:30:18 :with: 99-rsv.wapadiume :act: logout :info: just logout :end;
LOGFILE 2018-02-13 10:49:22 :with: 93-ruditara :act: logout :info: just logout :end;
LOGFILE 2018-02-13 11:15:39 :with: 210-demohotelv :act: logout :info: just logout :end;
LOGFILE 2018-02-13 11:36:28 :with: 254-choicestay :act: logout :info: just logout :end;
LOGFILE 2018-02-13 11:51:46 :with: 88-sguntary :act: logout :info: just logout :end;
LOGFILE 2018-02-13 12:08:39 :with: 181-lotusgarden :act: logout :info: just logout :end;
LOGFILE 2018-02-13 13:17:36 :with: 2-demohotel :act: logout :info: just logout :end;
LOGFILE 2018-02-13 15:24:28 :with: 2-demohotel :act: logout :info: just logout :end;
LOGFILE 2018-02-13 15:32:47 :with: 149-mjhdenpasar :act: logout :info: just logout :end;
LOGFILE 2018-02-13 15:37:05 :with: 259-vmsugiartha :act: logout :info: just logout :end;
LOGFILE 2018-02-13 15:37:20 :with: 279-primadana :act: logout :info: just logout :end;
LOGFILE 2018-02-13 15:40:10 :with: 258-vmwinarta :act: logout :info: just logout :end;
LOGFILE 2018-02-13 15:48:55 :with: 88-sguntary :act: logout :info: just logout :end;
LOGFILE 2018-02-13 17:37:16 :with: 181-lotusgarden :act: logout :info: just logout :end;
LOGFILE 2018-02-13 18:22:13 :with: 254-choicestay :act: logout :info: just logout :end;
LOGFILE 2018-02-13 20:02:38 :with: 181-lotusgarden :act: logout :info: just logout :end;
