LOGFILE 2017-08-20 08:35:54 :with: 89-calista :act: logout :info: just logout :end;
LOGFILE 2017-08-20 08:37:43 :with: 89-calista :act: logout :info: just logout :end;
LOGFILE 2017-08-20 09:33:43 :with: 88-sguntary :act: logout :info: just logout :end;
LOGFILE 2017-08-20 20:49:03 :with: 93-ruditara :act: logout :info: just logout :end;
LOGFILE 2017-08-20 20:50:13 :with: 89-calista :act: logout :info: just logout :end;
