LOGFILE 2017-12-14 10:43:30 :with: 99-rsv.wapadiume :act: logout :info: just logout :end;
LOGFILE 2017-12-14 11:35:29 :with: 101-sunansolo :act: logout :info: just logout :end;
LOGFILE 2017-12-14 11:49:50 :with: 101-sunansolo :act: logout :info: just logout :end;
LOGFILE 2017-12-14 16:54:43 :with: 246-nusaduabay :act: logout :info: just logout :end;
LOGFILE 2017-12-14 18:17:14 :with: 181-lotusgarden :act: logout :info: just logout :end;
LOGFILE 2017-12-14 20:19:43 :with: 181-lotusgarden :act: logout :info: just logout :end;
LOGFILE 2017-12-14 22:00:38 :with: 181-lotusgarden :act: logout :info: just logout :end;
