LOGFILE 2017-04-26 11:33:41 :with: 88-sguntary :act: logout :info: just logout :end;
LOGFILE 2017-04-26 11:59:13 :with: 129-melaniebaio :act: logout :info: just logout :end;
LOGFILE 2017-04-26 11:59:25 :with: 129-melaniebaio :act: logout :info: just logout :end;
LOGFILE 2017-04-26 12:18:00 :with: 1-setya :act: logout :info: just logout :end;
LOGFILE 2017-04-26 12:18:13 :with: 88-sguntary :act: logout :info: just logout :end;
LOGFILE 2017-04-26 12:46:37 :with: 1-setya :act: logout :info: just logout :end;
LOGFILE 2017-04-26 12:48:24 :with: 88-sguntary :act: logout :info: just logout :end;
LOGFILE 2017-04-26 13:16:47 :with: 129-melaniebaio :act: logout :info: just logout :end;
LOGFILE 2017-04-26 14:34:56 :with: 129-melaniebaio :act: logout :info: just logout :end;
LOGFILE 2017-04-26 14:36:22 :with: 129-melaniebaio :act: logout :info: just logout :end;
LOGFILE 2017-04-26 14:51:26 :with: 129-melaniebaio :act: logout :info: just logout :end;
LOGFILE 2017-04-26 15:01:15 :with: 129-melaniebaio :act: logout :info: just logout :end;
LOGFILE 2017-04-26 15:05:23 :with: 129-melaniebaio :act: logout :info: just logout :end;
LOGFILE 2017-04-26 15:12:15 :with: 129-melaniebaio :act: logout :info: just logout :end;
LOGFILE 2017-04-26 16:34:01 :with: 1-setya :act: logout :info: just logout :end;
LOGFILE 2017-04-26 16:55:42 :with: 129-melaniebaio :act: logout :info: just logout :end;
LOGFILE 2017-04-26 18:47:24 :with: 94-bayuwestlake :act: logout :info: just logout :end;
LOGFILE 2017-04-26 21:47:46 :with: 89-calista :act: logout :info: just logout :end;
