LOGFILE 2018-02-14 05:52:29 :with: 99-rsv.wapadiume :act: logout :info: just logout :end;
LOGFILE 2018-02-14 09:33:00 :with: 149-mjhdenpasar :act: logout :info: just logout :end;
LOGFILE 2018-02-14 09:37:46 :with: - :act: logout :info: just logout :end;
LOGFILE 2018-02-14 09:49:14 :with: 2-demohotel :act: logout :info: just logout :end;
LOGFILE 2018-02-14 09:57:42 :with: 181-lotusgarden :act: logout :info: just logout :end;
LOGFILE 2018-02-14 10:17:24 :with: 181-lotusgarden :act: logout :info: just logout :end;
LOGFILE 2018-02-14 10:32:16 :with: 279-primadana :act: logout :info: just logout :end;
LOGFILE 2018-02-14 11:05:19 :with: 255-devnagisa :act: logout :info: just logout :end;
LOGFILE 2018-02-14 14:26:18 :with: 243-nagisagroup :act: logout :info: just logout :end;
LOGFILE 2018-02-14 16:14:27 :with: 149-mjhdenpasar :act: logout :info: just logout :end;
LOGFILE 2018-02-14 16:15:57 :with: 181-lotusgarden :act: logout :info: just logout :end;
LOGFILE 2018-02-14 16:45:16 :with: 255-devnagisa :act: logout :info: just logout :end;
LOGFILE 2018-02-14 17:43:09 :with: 255-devnagisa :act: logout :info: just logout :end;
LOGFILE 2018-02-14 17:45:04 :with: 149-mjhdenpasar :act: logout :info: just logout :end;
LOGFILE 2018-02-14 17:45:45 :with: 88-sguntary :act: logout :info: just logout :end;
LOGFILE 2018-02-14 18:11:47 :with: 152-regiana :act: logout :info: just logout :end;
LOGFILE 2018-02-14 18:21:07 :with: 254-choicestay :act: logout :info: just logout :end;
LOGFILE 2018-02-14 18:51:21 :with: 1-setya :act: logout :info: just logout :end;
