LOGFILE 2017-10-07 14:10:19 :with: 93-ruditara :act: logout :info: just logout :end;
LOGFILE 2017-10-07 14:55:38 :with: 137-Tukadvilla :act: logout :info: just logout :end;
LOGFILE 2017-10-07 14:58:02 :with: 135-balekaresort :act: logout :info: just logout :end;
LOGFILE 2017-10-07 15:03:58 :with: 137-Tukadvilla :act: logout :info: just logout :end;
LOGFILE 2017-10-07 15:07:02 :with: 135-balekaresort :act: logout :info: just logout :end;
