LOGFILE 2017-12-06 09:45:12 :with: 181-lotusgarden :act: logout :info: just logout :end;
LOGFILE 2017-12-06 09:48:27 :with: 181-lotusgarden :act: logout :info: just logout :end;
LOGFILE 2017-12-06 10:14:04 :with: 99-rsv.wapadiume :act: logout :info: just logout :end;
LOGFILE 2017-12-06 11:27:23 :with: 88-sguntary :act: logout :info: just logout :end;
LOGFILE 2017-12-06 11:46:47 :with: 246-nusaduabay :act: logout :info: just logout :end;
LOGFILE 2017-12-06 12:10:58 :with: 120-dian :act: logout :info: just logout :end;
LOGFILE 2017-12-06 12:11:34 :with: 120-dian :act: logout :info: just logout :end;
LOGFILE 2017-12-06 12:44:43 :with: 101-sunansolo :act: logout :info: just logout :end;
LOGFILE 2017-12-06 14:45:26 :with: 181-lotusgarden :act: logout :info: just logout :end;
LOGFILE 2017-12-06 16:27:57 :with: 246-nusaduabay :act: logout :info: just logout :end;
LOGFILE 2017-12-06 16:38:47 :with: 181-lotusgarden :act: logout :info: just logout :end;
LOGFILE 2017-12-06 17:09:14 :with: 181-lotusgarden :act: logout :info: just logout :end;
LOGFILE 2017-12-06 18:36:49 :with: 101-sunansolo :act: logout :info: just logout :end;
