LOGFILE 2018-02-01 10:22:16 :with: 256-fandy :act: logout :info: just logout :end;
LOGFILE 2018-02-01 10:25:42 :with: 257-tmskuta :act: logout :info: just logout :end;
LOGFILE 2018-02-01 10:46:06 :with: 152-regiana :act: logout :info: just logout :end;
LOGFILE 2018-02-01 12:10:34 :with: 149-mjhdenpasar :act: logout :info: just logout :end;
LOGFILE 2018-02-01 12:19:48 :with: 99-rsv.wapadiume :act: logout :info: just logout :end;
LOGFILE 2018-02-01 13:49:03 :with: 2-demohotel :act: logout :info: just logout :end;
LOGFILE 2018-02-01 14:31:11 :with: 254-choicestay :act: logout :info: just logout :end;
LOGFILE 2018-02-01 18:53:17 :with: 254-choicestay :act: logout :info: just logout :end;
