LOGFILE 2017-11-08 08:36:21 :with: 181-lotusgarden :act: logout :info: just logout :end;
LOGFILE 2017-11-08 10:51:03 :with: 149-mjhdenpasar :act: logout :info: just logout :end;
LOGFILE 2017-11-08 10:54:33 :with: 149-mjhdenpasar :act: logout :info: just logout :end;
LOGFILE 2017-11-08 10:54:58 :with: 242-Limasatu :act: logout :info: just logout :end;
LOGFILE 2017-11-08 13:36:53 :with: 99-rsv.wapadiume :act: logout :info: just logout :end;
LOGFILE 2017-11-08 14:14:04 :with: 181-lotusgarden :act: logout :info: just logout :end;
LOGFILE 2017-11-08 16:54:20 :with: 181-lotusgarden :act: logout :info: just logout :end;
LOGFILE 2017-11-08 17:06:28 :with: 181-lotusgarden :act: logout :info: just logout :end;
LOGFILE 2017-11-08 18:27:33 :with: 181-lotusgarden :act: logout :info: just logout :end;
LOGFILE 2017-11-08 19:45:53 :with: 181-lotusgarden :act: logout :info: just logout :end;
