LOGFILE 2017-09-28 12:00:09 :with: 147-derrint :act: logout :info: just logout :end;
LOGFILE 2017-09-28 13:39:41 :with: 93-ruditara :act: logout :info: just logout :end;
LOGFILE 2017-09-28 18:55:58 :with: 175-demogroup :act: logout :info: just logout :end;
LOGFILE 2017-09-28 23:15:01 :with: 89-calista :act: logout :info: just logout :end;
