LOGFILE 2017-07-17 11:12:09 :with: 88-sguntary :act: logout :info: just logout :end;
LOGFILE 2017-07-17 11:43:54 :with: 93-ruditara :act: logout :info: just logout :end;
LOGFILE 2017-07-17 17:19:43 :with: 93-ruditara :act: logout :info: just logout :end;
LOGFILE 2017-07-17 19:41:02 :with: 93-ruditara :act: logout :info: just logout :end;
