LOGFILE 2018-01-16 07:11:00 :with: 99-rsv.wapadiume :act: logout :info: just logout :end;
LOGFILE 2018-01-16 12:29:41 :with: 101-sunansolo :act: logout :info: just logout :end;
LOGFILE 2018-01-16 12:29:47 :with: 99-rsv.wapadiume :act: logout :info: just logout :end;
LOGFILE 2018-01-16 12:35:53 :with: 99-rsv.wapadiume :act: logout :info: just logout :end;
LOGFILE 2018-01-16 12:59:23 :with: 243-nagisagroup :act: logout :info: just logout :end;
LOGFILE 2018-01-16 13:21:15 :with: 243-nagisagroup :act: logout :info: just logout :end;
LOGFILE 2018-01-16 13:30:18 :with: 243-nagisagroup :act: logout :info: just logout :end;
LOGFILE 2018-01-16 13:33:46 :with: 243-nagisagroup :act: logout :info: just logout :end;
LOGFILE 2018-01-16 14:43:40 :with: 101-sunansolo :act: logout :info: just logout :end;
LOGFILE 2018-01-16 16:04:49 :with: 149-mjhdenpasar :act: logout :info: just logout :end;
LOGFILE 2018-01-16 17:07:44 :with: 152-regiana :act: logout :info: just logout :end;
LOGFILE 2018-01-16 17:37:31 :with: 93-ruditara :act: logout :info: just logout :end;
LOGFILE 2018-01-16 18:32:54 :with: 101-sunansolo :act: logout :info: just logout :end;
