LOGFILE 2017-05-22 10:30:20 :with: 92-ariegqhotel :act: logout :info: just logout :end;
LOGFILE 2017-05-22 14:04:50 :with: 94-bayuwestlake :act: logout :info: just logout :end;
LOGFILE 2017-05-22 14:19:33 :with: 121-cathy :act: logout :info: just logout :end;
LOGFILE 2017-05-22 16:58:15 :with: 94-bayuwestlake :act: logout :info: just logout :end;
LOGFILE 2017-05-22 17:16:51 :with: 92-ariegqhotel :act: logout :info: just logout :end;
