LOGFILE 2017-12-12 07:00:20 :with: 2-demohotel :act: logout :info: just logout :end;
LOGFILE 2017-12-12 07:01:33 :with: 88-sguntary :act: logout :info: just logout :end;
LOGFILE 2017-12-12 09:20:49 :with: 99-rsv.wapadiume :act: logout :info: just logout :end;
LOGFILE 2017-12-12 10:29:10 :with: 2-demohotel :act: logout :info: just logout :end;
LOGFILE 2017-12-12 10:33:43 :with: 243-nagisagroup :act: logout :info: just logout :end;
LOGFILE 2017-12-12 10:39:49 :with: 2-demohotel :act: logout :info: just logout :end;
LOGFILE 2017-12-12 11:34:01 :with: 2-demohotel :act: logout :info: just logout :end;
LOGFILE 2017-12-12 11:57:35 :with: 2-demohotel :act: logout :info: just logout :end;
LOGFILE 2017-12-12 11:57:42 :with: 2-demohotel :act: logout :info: just logout :end;
LOGFILE 2017-12-12 13:08:57 :with: 2-demohotel :act: logout :info: just logout :end;
LOGFILE 2017-12-12 13:57:03 :with: 181-lotusgarden :act: logout :info: just logout :end;
LOGFILE 2017-12-12 18:15:38 :with: 93-ruditara :act: logout :info: just logout :end;
