LOGFILE 2017-09-18 14:22:38 :with: 88-sguntary :act: logout :info: just logout :end;
LOGFILE 2017-09-18 14:57:21 :with: 152-regiana :act: logout :info: just logout :end;
LOGFILE 2017-09-18 15:08:04 :with: 159-tamanmesari :act: logout :info: just logout :end;
LOGFILE 2017-09-18 15:56:09 :with: 101-sunansolo :act: logout :info: just logout :end;
LOGFILE 2017-09-18 16:41:52 :with: 93-ruditara :act: logout :info: just logout :end;
LOGFILE 2017-09-18 16:47:04 :with: 93-ruditara :act: logout :info: just logout :end;
LOGFILE 2017-09-18 18:34:58 :with: 99-rsv.wapadiume :act: logout :info: just logout :end;
