LOGFILE 2017-10-24 11:02:02 :with: 210-demohotelv :act: logout :info: just logout :end;
LOGFILE 2017-10-24 13:37:22 :with: 152-regiana :act: logout :info: just logout :end;
LOGFILE 2017-10-24 18:13:30 :with: 101-sunansolo :act: logout :info: just logout :end;
LOGFILE 2017-10-24 19:04:59 :with: 210-demohotelv :act: logout :info: just logout :end;
