LOGFILE 2017-10-15 15:21:15 :with: 175-demogroup :act: logout :info: just logout :end;
LOGFILE 2017-10-15 15:37:52 :with: 152-regiana :act: logout :info: just logout :end;
LOGFILE 2017-10-15 17:37:03 :with: 93-ruditara :act: logout :info: just logout :end;
