LOGFILE 2017-09-11 10:48:01 :with: 88-sguntary :act: logout :info: just logout :end;
LOGFILE 2017-09-11 17:59:09 :with: 101-sunansolo :act: logout :info: just logout :end;
LOGFILE 2017-09-11 18:07:50 :with: 152-regiana :act: logout :info: just logout :end;
