LOGFILE 2018-01-26 09:11:54 :with: 99-rsv.wapadiume :act: logout :info: just logout :end;
LOGFILE 2018-01-26 11:46:04 :with: 152-regiana :act: logout :info: just logout :end;
LOGFILE 2018-01-26 12:38:37 :with: 255-devnagisa :act: logout :info: just logout :end;
LOGFILE 2018-01-26 12:58:53 :with: 181-lotusgarden :act: logout :info: just logout :end;
LOGFILE 2018-01-26 17:34:29 :with: 181-lotusgarden :act: logout :info: just logout :end;
LOGFILE 2018-01-26 17:39:19 :with: 149-mjhdenpasar :act: logout :info: just logout :end;
LOGFILE 2018-01-26 18:00:32 :with: 243-nagisagroup :act: logout :info: just logout :end;
LOGFILE 2018-01-26 18:05:27 :with: 255-devnagisa :act: logout :info: just logout :end;
LOGFILE 2018-01-26 18:34:33 :with: 254-choicestay :act: logout :info: just logout :end;
LOGFILE 2018-01-26 20:00:22 :with: 147-derrint :act: logout :info: just logout :end;
