LOGFILE 2018-04-04 09:22:41 :with: 101-sunansolo :act: logout :info: just logout :end;
LOGFILE 2018-04-04 10:35:05 :with: 149-mjhdenpasar :act: logout :info: just logout :end;
LOGFILE 2018-04-04 10:35:28 :with: 243-nagisagroup :act: logout :info: just logout :end;
LOGFILE 2018-04-04 10:35:39 :with: 118-kubuubud :act: logout :info: just logout :end;
LOGFILE 2018-04-04 11:26:52 :with: 149-mjhdenpasar :act: logout :info: just logout :end;
LOGFILE 2018-04-04 11:30:57 :with: 99-rsv.wapadiume :act: logout :info: just logout :end;
LOGFILE 2018-04-04 12:08:19 :with: 321-rsvnbayview :act: logout :info: just logout :end;
LOGFILE 2018-04-04 12:23:25 :with: 255-devnagisa :act: logout :info: just logout :end;
LOGFILE 2018-04-04 12:25:53 :with: 321-rsvnbayview :act: logout :info: just logout :end;
LOGFILE 2018-04-04 12:28:23 :with: 88-sguntary :act: logout :info: just logout :end;
LOGFILE 2018-04-04 12:28:59 :with: 321-rsvnbayview :act: logout :info: just logout :end;
LOGFILE 2018-04-04 12:30:22 :with: 322-hknusadua :act: logout :info: just logout :end;
LOGFILE 2018-04-04 12:31:26 :with: 149-mjhdenpasar :act: logout :info: just logout :end;
LOGFILE 2018-04-04 12:31:44 :with: 88-sguntary :act: logout :info: just logout :end;
LOGFILE 2018-04-04 12:32:03 :with: 325-accndbv :act: logout :info: just logout :end;
LOGFILE 2018-04-04 12:33:30 :with: 149-mjhdenpasar :act: logout :info: just logout :end;
LOGFILE 2018-04-04 12:41:59 :with: 321-rsvnbayview :act: logout :info: just logout :end;
LOGFILE 2018-04-04 12:43:52 :with: 181-lotusgarden :act: logout :info: just logout :end;
LOGFILE 2018-04-04 14:01:34 :with: 325-accndbv :act: logout :info: just logout :end;
LOGFILE 2018-04-04 14:23:15 :with: 254-choicestay :act: logout :info: just logout :end;
LOGFILE 2018-04-04 14:25:22 :with: 254-choicestay :act: logout :info: just logout :end;
LOGFILE 2018-04-04 15:09:46 :with: 285-bbvsari :act: logout :info: just logout :end;
LOGFILE 2018-04-04 15:35:48 :with: 1-setya :act: logout :info: just logout :end;
LOGFILE 2018-04-04 16:55:19 :with: 321-rsvnbayview :act: logout :info: just logout :end;
LOGFILE 2018-04-04 17:00:55 :with: 287-nbvpipin :act: logout :info: just logout :end;
LOGFILE 2018-04-04 18:29:13 :with: 101-sunansolo :act: logout :info: just logout :end;
