LOGFILE 2017-05-12 12:20:19 :with: 89-calista :act: logout :info: just logout :end;
LOGFILE 2017-05-12 13:11:02 :with: 89-calista :act: logout :info: just logout :end;
LOGFILE 2017-05-12 14:29:08 :with: 93-ruditara :act: logout :info: just logout :end;
LOGFILE 2017-05-12 16:02:14 :with: 129-melaniebaio :act: logout :info: just logout :end;
LOGFILE 2017-05-12 17:00:25 :with: 93-ruditara :act: logout :info: just logout :end;
LOGFILE 2017-05-12 20:12:38 :with: 89-calista :act: logout :info: just logout :end;
