LOGFILE January 3, 2017, 10:00 am :with: 1-admin :act: access homepage :info: just access :end;
LOGFILE January 3, 2017, 10:02 am :with: 1-admin :act: logout :info: just logout :end;
LOGFILE January 3, 2017, 10:02 am :with: 1-admin :act: login :info: just login :end;
LOGFILE January 3, 2017, 12:41 pm :with: 1-admin :act: login :info: just login :end;
LOGFILE January 3, 2017, 1:10 pm :with: 1-admin :act: login :info: just login :end;
LOGFILE January 3, 2017, 3:24 pm :with: 1-admin :act: login :info: just login :end;
LOGFILE January 3, 2017, 3:50 pm :with: 1-admin :act: login :info: just login :end;
LOGFILE January 3, 2017, 3:54 pm :with: 1-admin :act: login :info: just login :end;
LOGFILE January 3, 2017, 3:55 pm :with: 1-admin :act: login :info: just login :end;
LOGFILE January 3, 2017, 3:55 pm :with: 1-admin :act: login :info: just login :end;
LOGFILE January 3, 2017, 3:56 pm :with: 1-admin :act: add hotel :info: Array :end;
LOGFILE January 3, 2017, 4:21 pm :with: 1-admin :act: add hotel :info: Array :end;
LOGFILE January 3, 2017, 4:25 pm :with: 1-admin :act: add hotel :info: 2-0-Test Hotel 3-5-1-1-23-11-2-6-23-23-23-23-23-1 :end;
