LOGFILE 2017-12-04 09:47:50 :with: 181-lotusgarden :act: logout :info: just logout :end;
LOGFILE 2017-12-04 10:53:31 :with: 99-rsv.wapadiume :act: logout :info: just logout :end;
LOGFILE 2017-12-04 12:40:26 :with: 101-sunansolo :act: logout :info: just logout :end;
LOGFILE 2017-12-04 13:31:29 :with: 101-sunansolo :act: logout :info: just logout :end;
LOGFILE 2017-12-04 15:13:34 :with: 203-foimuntilan :act: logout :info: just logout :end;
LOGFILE 2017-12-04 16:10:52 :with: 181-lotusgarden :act: logout :info: just logout :end;
LOGFILE 2017-12-04 16:31:17 :with: 152-regiana :act: logout :info: just logout :end;
