LOGFILE 2017-07-06 09:03:53 :with: 138-tukadalit :act: logout :info: just logout :end;
LOGFILE 2017-07-06 12:14:29 :with: 142-grandorchidjogja :act: logout :info: just logout :end;
LOGFILE 2017-07-06 13:14:43 :with: 93-ruditara :act: logout :info: just logout :end;
LOGFILE 2017-07-06 18:09:08 :with: 88-sguntary :act: logout :info: just logout :end;
