LOGFILE 2017-08-23 10:29:55 :with: 142-grandorchidjogja :act: logout :info: just logout :end;
LOGFILE 2017-08-23 11:28:17 :with: 142-grandorchidjogja :act: logout :info: just logout :end;
LOGFILE 2017-08-23 12:10:42 :with: 88-sguntary :act: logout :info: just logout :end;
LOGFILE 2017-08-23 12:13:39 :with: 88-sguntary :act: logout :info: just logout :end;
