LOGFILE 2017-12-20 09:39:34 :with: 88-sguntary :act: logout :info: just logout :end;
LOGFILE 2017-12-20 10:25:50 :with: 243-nagisagroup :act: logout :info: just logout :end;
LOGFILE 2017-12-20 10:44:11 :with: 243-nagisagroup :act: logout :info: just logout :end;
LOGFILE 2017-12-20 10:50:33 :with: 99-rsv.wapadiume :act: logout :info: just logout :end;
LOGFILE 2017-12-20 11:12:32 :with: 2-demohotel :act: logout :info: just logout :end;
LOGFILE 2017-12-20 11:43:10 :with: 149-mjhdenpasar :act: logout :info: just logout :end;
LOGFILE 2017-12-20 12:05:48 :with: 120-dian :act: logout :info: just logout :end;
LOGFILE 2017-12-20 12:09:16 :with: 243-nagisagroup :act: logout :info: just logout :end;
LOGFILE 2017-12-20 12:11:09 :with: 101-sunansolo :act: logout :info: just logout :end;
LOGFILE 2017-12-20 12:23:10 :with: 88-sguntary :act: logout :info: just logout :end;
LOGFILE 2017-12-20 12:41:09 :with: 181-lotusgarden :act: logout :info: just logout :end;
LOGFILE 2017-12-20 14:18:23 :with: 181-lotusgarden :act: logout :info: just logout :end;
LOGFILE 2017-12-20 14:28:12 :with: 243-nagisagroup :act: logout :info: just logout :end;
LOGFILE 2017-12-20 16:06:46 :with: 181-lotusgarden :act: logout :info: just logout :end;
LOGFILE 2017-12-20 16:22:20 :with: 101-sunansolo :act: logout :info: just logout :end;
LOGFILE 2017-12-20 17:12:09 :with: 152-regiana :act: logout :info: just logout :end;
LOGFILE 2017-12-20 18:07:47 :with: 181-lotusgarden :act: logout :info: just logout :end;
LOGFILE 2017-12-20 19:40:04 :with: 149-mjhdenpasar :act: logout :info: just logout :end;
LOGFILE 2017-12-20 19:40:54 :with: - :act: logout :info: just logout :end;
LOGFILE 2017-12-20 22:02:32 :with: 181-lotusgarden :act: logout :info: just logout :end;
