LOGFILE 2018-03-26 09:51:28 :with: 181-lotusgarden :act: logout :info: just logout :end;
LOGFILE 2018-03-26 10:21:16 :with: 88-sguntary :act: logout :info: just logout :end;
LOGFILE 2018-03-26 10:49:34 :with: 255-devnagisa :act: logout :info: just logout :end;
LOGFILE 2018-03-26 11:00:57 :with: 88-sguntary :act: logout :info: just logout :end;
LOGFILE 2018-03-26 11:30:57 :with: 152-regiana :act: logout :info: just logout :end;
LOGFILE 2018-03-26 11:57:45 :with: 181-lotusgarden :act: logout :info: just logout :end;
LOGFILE 2018-03-26 12:12:48 :with: 275-sutra :act: logout :info: just logout :end;
LOGFILE 2018-03-26 12:18:37 :with: 255-devnagisa :act: logout :info: just logout :end;
LOGFILE 2018-03-26 12:19:11 :with: 88-sguntary :act: logout :info: just logout :end;
LOGFILE 2018-03-26 12:20:55 :with: 88-sguntary :act: logout :info: just logout :end;
LOGFILE 2018-03-26 12:23:55 :with: 88-sguntary :act: logout :info: just logout :end;
LOGFILE 2018-03-26 13:44:55 :with: 255-devnagisa :act: logout :info: just logout :end;
LOGFILE 2018-03-26 13:45:28 :with: 255-devnagisa :act: logout :info: just logout :end;
LOGFILE 2018-03-26 14:39:19 :with: 285-bbvsari :act: logout :info: just logout :end;
LOGFILE 2018-03-26 16:15:56 :with: 93-ruditara :act: logout :info: just logout :end;
LOGFILE 2018-03-26 16:34:42 :with: 152-regiana :act: logout :info: just logout :end;
LOGFILE 2018-03-26 16:50:21 :with: 276-keke :act: logout :info: just logout :end;
LOGFILE 2018-03-26 16:56:08 :with: 276-keke :act: logout :info: just logout :end;
LOGFILE 2018-03-26 17:11:04 :with: 181-lotusgarden :act: logout :info: just logout :end;
LOGFILE 2018-03-26 18:26:22 :with: 254-choicestay :act: logout :info: just logout :end;
LOGFILE 2018-03-26 18:29:28 :with: 93-ruditara :act: logout :info: just logout :end;
LOGFILE 2018-03-26 18:32:26 :with: 101-sunansolo :act: logout :info: just logout :end;
