LOGFILE 2018-01-15 07:34:44 :with: 99-rsv.wapadiume :act: logout :info: just logout :end;
LOGFILE 2018-01-15 10:21:37 :with: 175-demogroup :act: logout :info: just logout :end;
LOGFILE 2018-01-15 10:25:51 :with: 243-nagisagroup :act: logout :info: just logout :end;
LOGFILE 2018-01-15 13:52:55 :with: 99-rsv.wapadiume :act: logout :info: just logout :end;
LOGFILE 2018-01-15 14:02:55 :with: 181-lotusgarden :act: logout :info: just logout :end;
LOGFILE 2018-01-15 15:55:02 :with: 181-lotusgarden :act: logout :info: just logout :end;
LOGFILE 2018-01-15 17:59:55 :with: 152-regiana :act: logout :info: just logout :end;
LOGFILE 2018-01-15 18:00:10 :with: 152-regiana :act: logout :info: just logout :end;
LOGFILE 2018-01-15 18:16:53 :with: 2-demohotel :act: logout :info: just logout :end;
LOGFILE 2018-01-15 18:34:07 :with: 88-sguntary :act: logout :info: just logout :end;
LOGFILE 2018-01-15 18:56:47 :with: 181-lotusgarden :act: logout :info: just logout :end;
LOGFILE 2018-01-15 18:56:47 :with: - :act: logout :info: just logout :end;
