LOGFILE 2017-05-05 10:17:48 :with: 129-melaniebaio :act: logout :info: just logout :end;
LOGFILE 2017-05-05 11:41:24 :with: 89-calista :act: logout :info: just logout :end;
LOGFILE 2017-05-05 13:43:14 :with: 92-ariegqhotel :act: logout :info: just logout :end;
LOGFILE 2017-05-05 15:58:22 :with: 129-melaniebaio :act: logout :info: just logout :end;
LOGFILE 2017-05-05 17:50:36 :with: 94-bayuwestlake :act: logout :info: just logout :end;
