LOGFILE 2017-11-20 09:15:22 :with: 99-rsv.wapadiume :act: logout :info: just logout :end;
LOGFILE 2017-11-20 12:18:37 :with: 181-lotusgarden :act: logout :info: just logout :end;
LOGFILE 2017-11-20 13:44:57 :with: 93-ruditara :act: logout :info: just logout :end;
LOGFILE 2017-11-20 14:26:26 :with: 89-calista :act: logout :info: just logout :end;
LOGFILE 2017-11-20 14:40:16 :with: 147-derrint :act: logout :info: just logout :end;
LOGFILE 2017-11-20 17:26:50 :with: 152-regiana :act: logout :info: just logout :end;
