LOGFILE 2017-04-18 10:59:43 :with: 123-camabaio :act: logout :info: just logout :end;
LOGFILE 2017-04-18 11:20:32 :with: 118-kubuubud :act: logout :info: just logout :end;
LOGFILE 2017-04-18 11:24:24 :with: 123-camabaio :act: logout :info: just logout :end;
LOGFILE 2017-04-18 11:28:57 :with: 118-kubuubud :act: logout :info: just logout :end;
LOGFILE 2017-04-18 17:17:27 :with: 118-kubuubud :act: logout :info: just logout :end;
