LOGFILE 2017-11-24 08:22:06 :with: 99-rsv.wapadiume :act: logout :info: just logout :end;
LOGFILE 2017-11-24 10:12:48 :with: 181-lotusgarden :act: logout :info: just logout :end;
LOGFILE 2017-11-24 11:02:50 :with: 149-mjhdenpasar :act: logout :info: just logout :end;
LOGFILE 2017-11-24 12:10:47 :with: 181-lotusgarden :act: logout :info: just logout :end;
LOGFILE 2017-11-24 12:33:18 :with: 184-The Cube :act: logout :info: just logout :end;
LOGFILE 2017-11-24 13:46:01 :with: 181-lotusgarden :act: logout :info: just logout :end;
LOGFILE 2017-11-24 15:13:26 :with: 202-mezaraazana :act: logout :info: just logout :end;
LOGFILE 2017-11-24 17:31:41 :with: 202-mezaraazana :act: logout :info: just logout :end;
LOGFILE 2017-11-24 17:54:31 :with: 181-lotusgarden :act: logout :info: just logout :end;
LOGFILE 2017-11-24 18:50:19 :with: 101-sunansolo :act: logout :info: just logout :end;
