LOGFILE 2017-12-23 09:13:08 :with: 181-lotusgarden :act: logout :info: just logout :end;
LOGFILE 2017-12-23 09:50:59 :with: 93-ruditara :act: logout :info: just logout :end;
LOGFILE 2017-12-23 10:47:24 :with: 99-rsv.wapadiume :act: logout :info: just logout :end;
LOGFILE 2017-12-23 14:12:33 :with: 101-sunansolo :act: logout :info: just logout :end;
LOGFILE 2017-12-23 14:23:04 :with: 99-rsv.wapadiume :act: logout :info: just logout :end;
