LOGFILE 2017-04-27 11:19:27 :with: 94-bayuwestlake :act: logout :info: just logout :end;
LOGFILE 2017-04-27 14:58:40 :with: 93-ruditara :act: logout :info: just logout :end;
LOGFILE 2017-04-27 15:00:20 :with: 1-setya :act: logout :info: just logout :end;
LOGFILE 2017-04-27 15:26:29 :with: 89-calista :act: logout :info: just logout :end;
