LOGFILE 2017-01-25 11:58:46 :with: 87-ind :act: login :info: just login :end;
LOGFILE 2017-01-25 12:43:57 :with: 88-sguntary :act: login :info: just login :end;
LOGFILE 2017-01-25 14:43:27 :with: 87-ind :act: login :info: just login :end;
LOGFILE 2017-01-25 14:59:19 :with: 88-sguntary :act: login :info: just login :end;
LOGFILE 2017-01-25 14:59:48 :with: 88-sguntary :act: logout :info: just logout :end;
LOGFILE 2017-01-25 15:10:55 :with: 88-sguntary :act: login :info: just login :end;
LOGFILE 2017-01-25 19:10:51 :with: 87-ind :act: login :info: just login :end;
LOGFILE 2017-01-25 23:05:40 :with: 87-ind :act: login :info: just login :end;
