LOGFILE 2018-02-06 00:50:22 :with: 120-dian :act: logout :info: just logout :end;
LOGFILE 2018-02-06 08:55:47 :with: 99-rsv.wapadiume :act: logout :info: just logout :end;
LOGFILE 2018-02-06 10:20:02 :with: 147-derrint :act: logout :info: just logout :end;
LOGFILE 2018-02-06 12:10:13 :with: 99-rsv.wapadiume :act: logout :info: just logout :end;
LOGFILE 2018-02-06 15:09:50 :with: 181-lotusgarden :act: logout :info: just logout :end;
LOGFILE 2018-02-06 15:16:34 :with: 149-mjhdenpasar :act: logout :info: just logout :end;
LOGFILE 2018-02-06 15:27:45 :with: 243-nagisagroup :act: logout :info: just logout :end;
LOGFILE 2018-02-06 15:30:07 :with: 149-mjhdenpasar :act: logout :info: just logout :end;
LOGFILE 2018-02-06 15:32:54 :with: 243-nagisagroup :act: logout :info: just logout :end;
LOGFILE 2018-02-06 16:07:36 :with: 243-nagisagroup :act: logout :info: just logout :end;
LOGFILE 2018-02-06 17:27:07 :with: 181-lotusgarden :act: logout :info: just logout :end;
LOGFILE 2018-02-06 18:41:33 :with: 254-choicestay :act: logout :info: just logout :end;
LOGFILE 2018-02-06 19:10:53 :with: 181-lotusgarden :act: logout :info: just logout :end;
