LOGFILE 2018-02-20 01:02:32 :with: 276-keke :act: logout :info: just logout :end;
LOGFILE 2018-02-20 08:10:16 :with: 99-rsv.wapadiume :act: logout :info: just logout :end;
LOGFILE 2018-02-20 10:10:11 :with: 181-lotusgarden :act: logout :info: just logout :end;
LOGFILE 2018-02-20 11:08:16 :with: 181-lotusgarden :act: logout :info: just logout :end;
LOGFILE 2018-02-20 12:15:06 :with: 276-keke :act: logout :info: just logout :end;
LOGFILE 2018-02-20 12:24:13 :with: 254-choicestay :act: logout :info: just logout :end;
LOGFILE 2018-02-20 12:26:36 :with: 254-choicestay :act: logout :info: just logout :end;
LOGFILE 2018-02-20 13:02:57 :with: 99-rsv.wapadiume :act: logout :info: just logout :end;
LOGFILE 2018-02-20 13:05:34 :with: 181-lotusgarden :act: logout :info: just logout :end;
LOGFILE 2018-02-20 14:53:17 :with: 255-devnagisa :act: logout :info: just logout :end;
LOGFILE 2018-02-20 15:04:13 :with: 88-sguntary :act: logout :info: just logout :end;
LOGFILE 2018-02-20 15:07:49 :with: 259-vmsugiartha :act: logout :info: just logout :end;
LOGFILE 2018-02-20 15:13:39 :with: 274-mariyono :act: logout :info: just logout :end;
LOGFILE 2018-02-20 15:29:12 :with: 88-sguntary :act: logout :info: just logout :end;
LOGFILE 2018-02-20 15:40:07 :with: 276-keke :act: logout :info: just logout :end;
LOGFILE 2018-02-20 15:57:30 :with: 2-demohotel :act: logout :info: just logout :end;
LOGFILE 2018-02-20 16:07:29 :with: 101-sunansolo :act: logout :info: just logout :end;
LOGFILE 2018-02-20 16:21:50 :with: 2-demohotel :act: logout :info: just logout :end;
LOGFILE 2018-02-20 16:22:20 :with: 181-lotusgarden :act: logout :info: just logout :end;
LOGFILE 2018-02-20 16:33:38 :with: 181-lotusgarden :act: logout :info: just logout :end;
LOGFILE 2018-02-20 17:07:08 :with: 93-ruditara :act: logout :info: just logout :end;
LOGFILE 2018-02-20 17:46:56 :with: 2-demohotel :act: logout :info: just logout :end;
LOGFILE 2018-02-20 17:59:06 :with: 181-lotusgarden :act: logout :info: just logout :end;
LOGFILE 2018-02-20 18:04:32 :with: 181-lotusgarden :act: logout :info: just logout :end;
LOGFILE 2018-02-20 18:29:19 :with: 149-mjhdenpasar :act: logout :info: just logout :end;
