LOGFILE 2017-09-13 15:21:36 :with: 149-mjhdenpasar :act: logout :info: just logout :end;
LOGFILE 2017-09-13 15:21:53 :with: 169-jiconbpn :act: logout :info: just logout :end;
LOGFILE 2017-09-13 18:29:05 :with: 93-ruditara :act: logout :info: just logout :end;
LOGFILE 2017-09-13 19:26:34 :with: 89-calista :act: logout :info: just logout :end;
