LOGFILE 2017-07-03 12:26:48 :with: 138-tukadalit :act: logout :info: just logout :end;
LOGFILE 2017-07-03 16:10:40 :with: 89-calista :act: logout :info: just logout :end;
LOGFILE 2017-07-03 16:18:39 :with: 137-Tukadvilla :act: logout :info: just logout :end;
