LOGFILE 2018-03-28 09:10:25 :with: 210-demohotelv :act: logout :info: just logout :end;
LOGFILE 2018-03-28 09:12:36 :with: 1-setya :act: logout :info: just logout :end;
LOGFILE 2018-03-28 09:49:14 :with: 243-nagisagroup :act: logout :info: just logout :end;
LOGFILE 2018-03-28 09:52:07 :with: 149-mjhdenpasar :act: logout :info: just logout :end;
LOGFILE 2018-03-28 10:56:06 :with: 243-nagisagroup :act: logout :info: just logout :end;
LOGFILE 2018-03-28 11:44:50 :with: 255-devnagisa :act: logout :info: just logout :end;
LOGFILE 2018-03-28 13:20:36 :with: 181-lotusgarden :act: logout :info: just logout :end;
LOGFILE 2018-03-28 13:49:52 :with: 243-nagisagroup :act: logout :info: just logout :end;
LOGFILE 2018-03-28 13:56:48 :with: 274-mariyono :act: logout :info: just logout :end;
LOGFILE 2018-03-28 15:10:43 :with: 285-bbvsari :act: logout :info: just logout :end;
LOGFILE 2018-03-28 16:08:59 :with: 243-nagisagroup :act: logout :info: just logout :end;
LOGFILE 2018-03-28 16:09:13 :with: - :act: logout :info: just logout :end;
LOGFILE 2018-03-28 16:49:43 :with: 149-mjhdenpasar :act: logout :info: just logout :end;
LOGFILE 2018-03-28 16:50:08 :with: 326-bellevuejakarta :act: logout :info: just logout :end;
LOGFILE 2018-03-28 17:20:36 :with: 181-lotusgarden :act: logout :info: just logout :end;
LOGFILE 2018-03-28 18:16:44 :with: 243-nagisagroup :act: logout :info: just logout :end;
LOGFILE 2018-03-28 18:35:06 :with: 181-lotusgarden :act: logout :info: just logout :end;
LOGFILE 2018-03-28 18:38:57 :with: 254-choicestay :act: logout :info: just logout :end;
