LOGFILE 2018-02-17 08:51:18 :with: 99-rsv.wapadiume :act: logout :info: just logout :end;
LOGFILE 2018-02-17 11:52:30 :with: 181-lotusgarden :act: logout :info: just logout :end;
LOGFILE 2018-02-17 16:00:42 :with: 93-ruditara :act: logout :info: just logout :end;
LOGFILE 2018-02-17 16:24:24 :with: 181-lotusgarden :act: logout :info: just logout :end;
LOGFILE 2018-02-17 18:24:39 :with: 254-choicestay :act: logout :info: just logout :end;
LOGFILE 2018-02-17 19:34:21 :with: 101-sunansolo :act: logout :info: just logout :end;
