LOGFILE 2017-09-25 12:59:12 :with: 163-paragonbizkarawaci :act: logout :info: just logout :end;
LOGFILE 2017-09-25 14:13:29 :with: 89-calista :act: logout :info: just logout :end;
LOGFILE 2017-09-25 15:02:01 :with: 88-sguntary :act: logout :info: just logout :end;
LOGFILE 2017-09-25 15:11:17 :with: 88-sguntary :act: logout :info: just logout :end;
LOGFILE 2017-09-25 15:18:46 :with: 88-sguntary :act: logout :info: just logout :end;
LOGFILE 2017-09-25 16:38:03 :with: 87-ind :act: logout :info: just logout :end;
LOGFILE 2017-09-25 16:42:42 :with: 175-demogroup :act: logout :info: just logout :end;
LOGFILE 2017-09-25 19:47:12 :with: 152-regiana :act: logout :info: just logout :end;
