LOGFILE 2017-04-21 11:31:58 :with: 94-bayuwestlake :act: logout :info: just logout :end;
LOGFILE 2017-04-21 11:58:04 :with: 89-calista :act: logout :info: just logout :end;
LOGFILE 2017-04-21 14:49:10 :with: 89-calista :act: logout :info: just logout :end;
LOGFILE 2017-04-21 15:37:03 :with: 94-bayuwestlake :act: logout :info: just logout :end;
