LOGFILE 2017-11-01 10:46:03 :with: 89-calista :act: logout :info: just logout :end;
LOGFILE 2017-11-01 16:51:13 :with: 89-calista :act: logout :info: just logout :end;
LOGFILE 2017-11-01 18:09:32 :with: 101-sunansolo :act: logout :info: just logout :end;
LOGFILE 2017-11-01 23:04:07 :with: 89-calista :act: logout :info: just logout :end;
LOGFILE 2017-11-01 23:04:28 :with: 181-lotus garden :act: logout :info: just logout :end;
