LOGFILE 2018-03-04 11:04:38 :with: 282-aomnagisa :act: logout :info: just logout :end;
LOGFILE 2018-03-04 11:05:47 :with: 282-aomnagisa :act: logout :info: just logout :end;
LOGFILE 2018-03-04 14:59:02 :with: 285-bbvsari :act: logout :info: just logout :end;
LOGFILE 2018-03-04 17:15:13 :with: 99-rsv.wapadiume :act: logout :info: just logout :end;
LOGFILE 2018-03-04 17:26:32 :with: 272-vmardana :act: logout :info: just logout :end;
LOGFILE 2018-03-04 20:20:07 :with: 181-lotusgarden :act: logout :info: just logout :end;
LOGFILE 2018-03-04 22:44:03 :with: 283-bbvpande :act: logout :info: just logout :end;
