LOGFILE 2017-03-31 11:39:16 :with: 88-sguntary :act: logout :info: just logout :end;
LOGFILE 2017-03-31 14:51:29 :with: 94-bayuwestlake :act: logout :info: just logout :end;
LOGFILE 2017-03-31 14:59:44 :with: 94-bayuwestlake :act: logout :info: just logout :end;
